easy insight	insight	6762	10660	0.78
blackboard for business	blackboard lms for business	2716	2718	0.7652
workforce	workforce now	23958	23959	0.86
incentives	incentives so	10378	10379	0.91
contact me	contact	5078	5074	0.88
eloquent labs	eloquent	7041	7040	0.8
tracksmart time attendance	tracksmart attendance	22080	22078	0.7706
facebook business	facebook for business	7849	7852	0.91
u route	route	22488	18222	0.91
bluefin	bluefin labs	2821	2822	0.78
sap bpc business planning and consolidation	sap business planning and consolidation bpc	18601	18608	0.92
insight	easy insight	10660	6762	0.78
autotask it	autotask	2061	2060	0.89
ge centricity practice solution	centricity practice solution	8793	3963	0.7706
hootsuite	hootsuite free	9878	9880	0.82
pdfelement 6	pdfelement	15676	15675	0.95
hoovers a db	hoovers db	9884	9885	0.95
on interactive	ve interactive	14902	22871	0.85
on interactive	interactive	14902	10825	0.92
verizon connect work	verizon work	22979	22984	0.76
alphabeta labs	alphabeta	1113	1112	0.82
velocity	sales velocity	22904	18413	0.76
goldmine	goldmine h	9123	9124	0.94
recurly	recurly r	17539	17540	0.93
azure machine learning studio	azure machine learning	2223	2222	0.7594
facebook for business	facebook business	7852	7849	0.91
avast endpoint protection suite	avast endpoint protection	2093	2092	0.8026
ppm executive command center ecc	plpm executive command center ecc	16398	16188	0.7736
planplus online crm	planplus crm	16122	16120	0.79
artificial	artificial labs	1753	1754	0.83
nudge	nudge now	14686	14688	0.77
facilities management express	facilities management express fmx	7866	7867	0.7641
asknicely nps	asknicely for nps	1800	1799	0.89
shadetree	shadetree t	19181	19182	0.95
plpm executive command center ecc	ppm executive command center ecc	16188	16398	0.7736
salesforce	salesforce a	18451	18452	0.95
the anylogic	anylogic	21572	1368	0.84
red hat jboss	red hat jboss eap	17547	17548	0.7502
sap business planning and consolidation bpc	sap bpc business planning and consolidation	18608	18601	0.92
tracksmart attendance	tracksmart time attendance	22078	22080	0.7706
evolve ip phone systems	evolve ip phone system	7637	7636	0.7821
tour de force	tour de force crm	22030	22031	0.794
hoovers db	db hoovers	9885	5978	0.78
hoovers db	hoovers a db	9885	9884	0.95
an dairy	dairy	1280	5749	0.83
terralign 4	terralign	21514	21513	0.95
terralign 4	the terralign	21514	21626	0.82
brand ensemble	ensemble	3089	7259	0.76
spiceworks help desk	spiceworks it help desk	20342	20343	0.95
alpine data labs	alpine data	1124	1123	0.83
asknicely for nps	asknicely nps	1799	1800	0.89
dairy	an dairy	5749	1280	0.83
the feedback	feedback	21584	7970	0.84
the shelf	shelf	21621	19239	0.77
bpmonline sales	bpmonline	3053	3051	0.78
sap business one erp	sap business one	18607	18606	0.778
lithium communities	lithium online communities	12325	12326	0.86
freshworks f	freshworks	8594	8593	0.95
consensus c	consensus	5051	5050	0.95
avast endpoint protection	avast endpoint protection suite	2092	2093	0.8026
has karma	karma	9539	11488	0.77
miller heiman the sales performance	miller heiman group sales performance	13581	13579	0.79
evolve ip phone system	evolve ip phone systems	7636	7637	0.7821
sap businessobjects	sap businessobjects bi	18610	18611	0.7726
identy	identy as	10204	10205	0.86
simplifyem property management	simplifyem property	19547	19546	0.78
steelbrick s	steelbrick	20620	20618	0.95
synergy 8	synergy	21070	21069	0.93
bpmonline	bpmonline sales	3051	3053	0.78
dispatch	its dispatch	6383	11127	0.84
salesforce a	salesforce	18452	18451	0.95
pdfelement	pdfelement 6	15675	15676	0.95
shadetree t	shadetree	19182	19181	0.95
alphabeta	alphabeta labs	1112	1113	0.82
spectrum construction suite	spectrum construction	20324	20323	0.7571
alpine data	alpine data labs	1123	1124	0.83
stamp me	stamp	20551	20550	0.83
periscope by	periscope	15831	15830	0.9
route	u route	18222	22488	0.91
sap businessobjects bi	sap businessobjects bi platform	18611	18612	0.83
sap businessobjects bi	sap businessobjects	18611	18610	0.7726
workforce now	workforce	23959	23958	0.86
qvidian proposal automation	qvidian rfp proposal automation	17239	17240	0.803
accountmate for sql	accountmate sql	280	281	0.9
vcita business	vcita business app	22863	22864	0.9
spiceworks it help desk	spiceworks help desk	20343	20342	0.95
artificial labs	artificial	1754	1753	0.83
db hoovers	hoovers db	5978	9885	0.78
front row s	front row	8606	8605	0.94
aplean	a aplean	1440	173	0.92
goldmine h	goldmine	9124	9123	0.94
eloquent	eloquent labs	7040	7041	0.8
find any email	find that email	8107	8108	0.8
identy as	identy	10205	10204	0.86
anylogic	the anylogic	1368	21572	0.84
peoplematter by snagajob	peoplematter a snagajob	15751	15750	0.93
interactive	ve interactive	10825	22871	0.92
interactive	on interactive	10825	14902	0.92
microsoft dynamics	microsoft dynamics crm	13530	13532	0.7893
conversant	conversant labs	5192	5193	0.83
incontact call center	nice incontact call center	10388	14520	0.7722
tour de force crm	tour de force	22031	22030	0.794
qvidian rfp proposal automation	qvidian proposal automation	17240	17239	0.803
sales velocity	velocity	18413	22904	0.76
telesupport helpdesk crm	telesupport helpdesk	21449	21448	0.8094
now interact	interact	14662	10818	0.84
nice incontact call center	incontact call center	14520	10388	0.7722
facilities management express fmx	facilities management express	7867	7866	0.7641
a aplean	aplean	173	1440	0.92
business objects sap	business objects	3395	3394	0.7561
business objects sap	sap business objects	3395	18604	0.83
centricity practice solution	ge centricity practice solution	3963	8793	0.7706
bluefin labs	bluefin	2822	2821	0.78
conversant labs	conversant	5193	5192	0.83
sociomantic labs	sociomantic	20081	20080	0.85
maropost marketing cloud	maropost marketing cloud sales	13034	13035	0.9
acctivate inventory	acctivate inventory management	295	296	0.78
sap business objects	business objects sap	18604	3395	0.83
sap business objects	business objects	18604	3394	0.7561
vonage business solutions	vonage business	23377	23376	0.76
salesforce analytics cloud	wave salesforce analytics cloud	18454	23525	0.766
cats applicant tracking	cats applicant tracking system	3850	3851	0.7837
timelines success flows integrations usage analytics	timelines success flows integrations and usage analysis	21851	21850	0.8158
freshworks formerly freshdesk	freshworks inc formerly freshdesk	8595	8596	0.7879
contact	contact me	5074	5078	0.88
contact	contact apps	5074	5075	0.78
find that email	find any email	8108	8107	0.8
stamp	stamp me	20550	20551	0.83
vonage business	vonage business solutions	23376	23377	0.76
steelbrick	steelbrick s	20618	20620	0.95
recurly r	recurly	17540	17539	0.93
telesupport helpdesk	telesupport helpdesk crm	21448	21449	0.8094
wave salesforce analytics cloud	salesforce analytics cloud	23525	18454	0.766
really simple systems	really simple systems crm	17472	17473	0.8319
get satisfaction	satisfaction	8897	18678	0.89
meracrm	care meracrm	13374	3730	0.78
cats applicant tracking system	cats applicant tracking	3851	3850	0.7837
microsoft dynamics crm	microsoft dynamics	13532	13530	0.7893
ensemble	brand ensemble	7259	3089	0.76
planplus crm	planplus online crm	16120	16122	0.79
tubular	tubular labs	22367	22368	0.78
accountmate sql	accountmate for sql	281	280	0.9
terralign	the terralign	21513	21626	0.86
terralign	terralign 4	21513	21514	0.95
carevoyant for home care	carevoyant home care	3758	3759	0.92
charlie app	charlie	4092	4091	0.82
satisfaction	get satisfaction	18678	8897	0.89
quicken rental property manager	quicken rental property	17167	17166	0.7715
verizon work	verizon connect work	22984	22979	0.76
vcita business app	vcita business	22864	22863	0.9
sap business one	sap business one erp	18606	18607	0.778
shelf	the shelf	19239	21621	0.77
front row	front row s	8605	8606	0.94
incentives so	incentives	10379	10378	0.91
feedback	the feedback	7970	21584	0.84
azure machine learning	azure machine learning studio	2222	2223	0.7594
acctivate inventory management	acctivate inventory	296	295	0.78
lithium online communities	lithium communities	12326	12325	0.86
freshworks	freshworks f	8593	8594	0.95
peoplematter a snagajob	peoplematter by snagajob	15750	15751	0.93
business objects	business objects sap	3394	3395	0.7561
business objects	sap business objects	3394	18604	0.7561
care meracrm	meracrm	3730	13374	0.78
its dispatch	dispatch	11127	6383	0.84
timelines success flows integrations and usage analysis	timelines success flows integrations usage analytics	21850	21851	0.8158
tubular labs	tubular	22368	22367	0.78
consensus	consensus c	5050	5051	0.95
hootsuite free	hootsuite	9880	9878	0.82
miller heiman group sales performance	miller heiman the sales performance	13579	13581	0.79
quicken rental property	quicken rental property manager	17166	17167	0.7715
virtual office by 8x8	8x8 virtual office	23176	167	0.76
vistex	v vistex	23237	22784	0.92
carevoyant home care	carevoyant for home care	3759	3758	0.92
v vistex	vistex	22784	23237	0.92
linkedin sales	linkedin	12267	12261	0.76
alpha	alpha i	1107	1109	0.91
paypal here	paypal here app	15623	15624	0.87
alpha i	alpha	1109	1107	0.91
freshworks inc formerly freshdesk	freshworks formerly freshdesk	8596	8595	0.7879
periscope	periscope by	15830	15831	0.9
the terralign	terralign	21626	21513	0.86
the terralign	terralign 4	21626	21514	0.82
autotask	autotask it	2060	2061	0.89
blackboard lms for business	blackboard for business	2718	2716	0.7652
really simple systems crm	really simple systems	17473	17472	0.8319
contact apps	contact	5075	5074	0.78
mention	mention me	13365	13366	0.88
maropost marketing cloud sales	maropost marketing cloud	13035	13034	0.9
linkedin	linkedin sales	12261	12267	0.76
sap businessobjects bi platform	sap businessobjects bi	18612	18611	0.83
paypal here app	paypal here	15624	15623	0.87
charlie	charlie app	4091	4092	0.82
ve interactive	on interactive	22871	14902	0.85
ve interactive	interactive	22871	10825	0.92
simplifyem property	simplifyem property management	19546	19547	0.78
spectrum construction	spectrum construction suite	20323	20324	0.7571
nudge now	nudge	14688	14686	0.77
8x8 virtual office	virtual office by 8x8	167	23176	0.76
synergy	synergy 8	21069	21070	0.93
zimbra collaboration	zimbra collaboration suite	24483	24484	0.7606
prospecting	sales prospecting	16789	18407	0.81
sociomantic	sociomantic labs	20080	20081	0.85
mention me	mention	13366	13365	0.88
interact	now interact	10818	14662	0.84
zimbra collaboration suite	zimbra collaboration	24484	24483	0.7606
karma	has karma	11488	9539	0.77
red hat jboss eap	red hat jboss	17548	17547	0.7502
sales prospecting	prospecting	18407	16789	0.81
