{
        "gatekeeper": "Gatekeeper", 
        "nvolv": "NVOLV", 
        "child": "Child", 
        "dynamic": "Dynamic", 
        "webmethods": "webMethods", 
        "iconixx": "Iconixx", 
        "reservations": "Reservations", 
        "billing": "Billing", 
        "gigya": "Gigya", 
        "pardot": "Pardot", 
        "bugherd": "BugHerd", 
        "buddy": "Buddy", 
        "advantage": "Advantage", 
        "tapfiliate": "Tapfiliate", 
        "quarkxpress": "QuarkXPress", 
        "visme": "Visme", 
        "halogen": "Halogen", 
        "matlab": "MATLAB", 
        "parim": "PARiM", 
        "ninjarmm": "NinjaRMM", 
        "hotpads": "HotPads", 
        "milanote": "Milanote", 
        "collaborate": "Collaborate", 
        "risk": "Risk", 
        "tenna": "Tenna", 
        "crashlytics": "Crashlytics", 
        "liquidplanner": "LiquidPlanner", 
        "learncore": "LearnCore", 
        "monodevelop": "Monodevelop", 
        "dell": "Dell", 
        "libris": "Libris", 
        "fishbowl": "Fishbowl", 
        "solver": "Solver", 
        "screaming": "Screaming", 
        "electronics": "Electronics", 
        "voip": "VoIP", 
        "school": "School", 
        "vyper": "VYPER", 
        "planio": "Planio", 
        "skills": "Skills", 
        "solution": "Solution", 
        "builtwith": "BuiltWith", 
        "tours": "Tours", 
        "esight": "eSight", 
        "gototraining": "GoToTraining", 
        "cms": "CMS", 
        "camscanner": "CamScanner", 
        "monetate": "Monetate", 
        "camcard": "CamCard", 
        "leaders": "Leaders", 
        "netbeans": "NetBeans", 
        "clover": "Clover", 
        "netcommunity": "NetCommunity", 
        "estimates": "Estimates", 
        "direct": "Direct", 
        "chef": "Chef", 
        "nopcommerce": "nopCommerce", 
        "shining": "Shining", 
        "blue": "Blue", 
        "neo": "NEO", 
        "onsched": "OnSched", 
        "integrity": "Integrity", 
        "hortonworks": "Hortonworks", 
        "signeasy": "SignEasy", 
        "salsify": "Salsify", 
        "mogo": "MOGO", 
        "new": "New", 
        "databank": "Databank", 
        "activedemand": "ActiveDEMAND", 
        "sli": "SLI", 
        "crunch": "Crunch", 
        "centric": "Centric", 
        "hero": "Hero", 
        "reporter": "Reporter", 
        "affinio": "Affinio", 
        "here": "Here", 
        "protection": "Protection", 
        "studio": "Studio", 
        "active": "ACTIVE", 
        "path": "Path", 
        "mex": "MEX", 
        "property": "Property", 
        "auction": "Auction", 
        "eventpro": "EventPro", 
        "iconduct": "IConduct", 
        "envoy": "Envoy", 
        "reports": "Reports", 
        "firstgiving": "FirstGiving", 
        "buildfire": "BuildFire", 
        "jama": "Jama", 
        "peakon": "Peakon", 
        "secure": "Secure", 
        "campaign": "Campaign", 
        "mobility": "Mobility", 
        "docusign": "DocuSign", 
        "spasalon": "SpaSalon", 
        "saleshandy": "SalesHandy", 
        "avalara": "Avalara", 
        "conferencing": "Conferencing", 
        "terraform": "Terraform", 
        "hipchat": "HipChat", 
        "total": "Total", 
        "forums": "Forums", 
        "landscape": "Landscape", 
        "freebusy": "FreeBusy", 
        "spoke": "Spoke", 
        "qualys": "Qualys", 
        "liftoff": "Liftoff", 
        "pinpointe": "Pinpointe", 
        "episerver": "Episerver", 
        "arms": "ARMS", 
        "tweepi": "Tweepi", 
        "m1": "M1", 
        "asset": "Asset", 
        "patientpop": "PatientPop", 
        "reviewpush": "ReviewPush", 
        "calc": "Calc", 
        "assessment": "Assessment", 
        "nessus": "Nessus", 
        "justcall": "Justcall", 
        "jmp": "JMP", 
        "atevent": "atEvent", 
        "it": "it", 
        "phone": "Phone", 
        "hold": "Hold", 
        "infusionsoft": "Infusionsoft", 
        "me": "Me", 
        "callrail": "CallRail", 
        "ninite": "Ninite", 
        "join": "Join", 
        "room": "Room", 
        "work": "Work", 
        "eclipse": "ECLIPSE", 
        "foresee": "ForeSee", 
        "availity": "Availity", 
        "ms": "MS", 
        "my": "My", 
        "attribution": "Attribution", 
        "marketwired": "Marketwired", 
        "shareasale": "ShareASale", 
        "estate": "Estate", 
        "give": "Give", 
        "uas": "UAS", 
        "dolphin": "Dolphin", 
        "webinarjam": "WebinarJam", 
        "rallyware": "Rallyware", 
        "rastrac": "RASTRAC", 
        "scheduling": "Scheduling", 
        "leadfeeder": "Leadfeeder", 
        "hubspot": "HubSpot", 
        "gradle": "Gradle", 
        "prezly": "Prezly", 
        "sideline": "Sideline", 
        "oncare": "OnCare", 
        "verify": "Verify", 
        "travel": "Travel", 
        "prowly": "Prowly", 
        "vagrant": "Vagrant", 
        "rhinoceros": "Rhinoceros", 
        "leveleleven": "LevelEleven", 
        "polis": "Polis", 
        "sizmek": "Sizmek", 
        "incontact": "inContact", 
        "tsheets": "TSheets", 
        "aurora": "Aurora", 
        "rise": "Rise", 
        "intercom": "Intercom", 
        "arcs": "ARCS", 
        "loyalty": "Loyalty", 
        "brightcove": "Brightcove", 
        "datorama": "Datorama", 
        "smarsh": "Smarsh", 
        "sellers": "Sellers", 
        "ionic": "Ionic", 
        "vidello": "Vidello", 
        "opendrive": "OpenDrive", 
        "bootstrap": "Bootstrap", 
        "aweber": "AWeber", 
        "wizehive": "WizeHive", 
        "ultimate": "Ultimate", 
        "updraft": "UPDRAFT", 
        "salon": "Salon", 
        "office": "Office", 
        "deck": "Deck", 
        "sprout": "Sprout", 
        "innovative": "Innovative", 
        "piwik": "Piwik", 
        "engrade": "Engrade", 
        "yellowfin": "Yellowfin", 
        "jangomail": "JangoMail", 
        "fit": "Fit", 
        "canto": "Canto", 
        "endpoint": "Endpoint", 
        "twitter": "Twitter", 
        "better": "Better", 
        "ims": "IMS", 
        "workable": "Workable", 
        "desktime": "DeskTime", 
        "harmony": "HARMONY", 
        "basecamp": "Basecamp", 
        "digitalchalk": "DigitalChalk", 
        "adroll": "Adroll", 
        "pega": "Pega", 
        "statcounter": "StatCounter", 
        "therapy": "Therapy", 
        "mgmt": "Mgmt", 
        "bank": "Bank", 
        "cloudera": "Cloudera", 
        "ifttt": "IFTTT", 
        "recovery": "Recovery", 
        "ringcentral": "RingCentral", 
        "appirio": "Appirio", 
        "skubana": "Skubana", 
        "prodpad": "ProdPad", 
        "affiliate": "Affiliate", 
        "scheduleonce": "ScheduleOnce", 
        "cmms": "CMMS", 
        "axure": "Axure", 
        "zuora": "Zuora", 
        "quizmaker": "QuizMaker", 
        "development": "Development", 
        "financial": "Financial", 
        "concord": "Concord", 
        "knockout": "Knockout", 
        "series": "Series", 
        "audiense": "Audiense", 
        "waffle": "Waffle", 
        "concur": "Concur", 
        "hosted": "Hosted", 
        "ensighten": "Ensighten", 
        "flock": "Flock", 
        "zenefits": "Zenefits", 
        "trumpia": "Trumpia", 
        "logi": "Logi", 
        "postman": "Postman", 
        "gqueues": "GQueues", 
        "rp": "RP", 
        "rq": "RQ", 
        "ceros": "Ceros", 
        "open": "Open", 
        "sms": "Sms", 
        "dss": "DSS", 
        "dsp": "DSP", 
        "optimizepress": "OptimizePress", 
        "content": "Content", 
        "sparkle": "Sparkle", 
        "networker": "Networker", 
        "safety": "Safety", 
        "millennium": "Millennium", 
        "hootsuite": "Hootsuite", 
        "silkroad": "SilkRoad", 
        "ro": "RO", 
        "foundation": "FOUNDATION", 
        "retainly": "Retainly", 
        "mindmeister": "MindMeister", 
        "exago": "Exago", 
        "freelan": "Freelan", 
        "vsts": "VSTS", 
        "marchex": "Marchex", 
        "tvalue": "TValue", 
        "management": "Management", 
        "kenexa": "Kenexa", 
        "workfront": "Workfront", 
        "cornerstone": "Cornerstone", 
        "cloudsuite": "CloudSuite", 
        "qualtrics": "Qualtrics", 
        "openssh": "OpenSSH", 
        "signature": "Signature", 
        "centrify": "Centrify", 
        "thumbtack": "Thumbtack", 
        "industrial": "Industrial", 
        "hearsay": "Hearsay", 
        "grade": "Grade", 
        "snagit": "Snagit", 
        "vistex": "Vistex", 
        "pcloud": "pCloud", 
        "clear": "Clear", 
        "typeform": "Typeform", 
        "onspring": "Onspring", 
        "neo4j": "Neo4j", 
        "navigator": "Navigator", 
        "pinterest": "Pinterest", 
        "commvault": "Commvault", 
        "service": "Service", 
        "apptopia": "Apptopia", 
        "tor": "Tor", 
        "top": "Top", 
        "engagement": "Engagement", 
        "recruiting": "Recruiting", 
        "glofox": "Glofox", 
        "xiq": "xIQ", 
        "insightsoftware": "Insightsoftware", 
        "eventzilla": "Eventzilla", 
        "datanyze": "Datanyze", 
        "emplo": "emplo", 
        "urban": "Urban", 
        "rewards": "Rewards", 
        "mckinsey": "Mckinsey", 
        "coursera": "Coursera", 
        "avaya": "Avaya", 
        "freshteam": "Freshteam", 
        "task": "Task", 
        "dynatrace": "Dynatrace", 
        "mongodb": "MongoDB", 
        "antavo": "Antavo", 
        "cerner": "Cerner", 
        "norton": "Norton", 
        "hotjar": "Hotjar", 
        "project": "Project", 
        "salesmanago": "SALESmanago", 
        "netscaler": "NetScaler", 
        "eventspot": "EventSpot", 
        "marketgoo": "MarketGoo", 
        "lifesize": "Lifesize", 
        "crownpeak": "Crownpeak", 
        "spectrum": "Spectrum", 
        "sniply": "Sniply", 
        "pantheon": "Pantheon", 
        "childcare": "Childcare", 
        "angularjs": "angularjs", 
        "mint": "Mint", 
        "cratejoy": "Cratejoy", 
        "umbraco": "Umbraco", 
        "reachlocal": "ReachLocal", 
        "netcore": "Netcore", 
        "financialforce": "FinancialForce", 
        "zoho": "Zoho", 
        "synchr": "SyncHR", 
        "client": "Client", 
        "doubleclick": "DoubleClick", 
        "plivo": "Plivo", 
        "avidian": "Avidian", 
        "hostwinds": "Hostwinds", 
        "effectiveness": "Effectiveness", 
        "snowflake": "Snowflake", 
        "scikit": "scikit", 
        "codeship": "Codeship", 
        "agiloft": "Agiloft", 
        "metrics": "Metrics", 
        "audition": "Audition", 
        "pentaho": "Pentaho", 
        "perforce": "Perforce", 
        "icloud": "iCloud", 
        "airship": "Airship", 
        "grovo": "Grovo", 
        "jupyter": "Jupyter", 
        "impraise": "Impraise", 
        "medical": "Medical", 
        "camp": "Camp", 
        "m": "M", 
        "reputation": "Reputation", 
        "enterprise": "ENTERPRISE", 
        "iconosquare": "Iconosquare", 
        "vzaar": "vzaar", 
        "meltwater": "Meltwater", 
        "notion": "Notion", 
        "marvel": "Marvel", 
        "squarespace": "Squarespace", 
        "stackadapt": "StackAdapt", 
        "meetings": "meetings", 
        "advisors": "Advisors", 
        "sage": "Sage", 
        "schoolmint": "SchoolMint", 
        "abm": "ABM", 
        "solutions": "SOLUTIONS", 
        "buildbot": "Buildbot", 
        "owler": "owler", 
        "toast": "Toast", 
        "sharpspring": "SharpSpring", 
        "altru": "Altru", 
        "backagent": "BackAgent", 
        "cheetahmail": "CheetahMail", 
        "unleashed": "Unleashed", 
        "screening": "Screening", 
        "acquia": "Acquia", 
        "integrate": "Integrate", 
        "lightroom": "Lightroom", 
        "upwork": "Upwork", 
        "personality": "Personality", 
        "do": "Do", 
        "kaymbu": "Kaymbu", 
        "kiteworks": "kiteworks", 
        "skilljar": "Skilljar", 
        "8x8": "8x8", 
        "fluid": "Fluid", 
        "xpenditure": "Xpenditure", 
        "amazon": "Amazon", 
        "net": "NET", 
        "fitli": "fitli", 
        "emc": "EMC", 
        "listrak": "Listrak", 
        "emm": "EMM", 
        "onelogin": "OneLogin", 
        "idrive": "IDrive", 
        "insurancesuite": "InsuranceSuite", 
        "cruisecontrol": "CruiseControl", 
        "zabbix": "Zabbix", 
        "architecture": "Architecture", 
        "ems": "EMS", 
        "emr": "EMR", 
        "release": "Release", 
        "emx": "emX", 
        "traverse": "TRAVERSE", 
        "jreport": "JReport", 
        "swept": "Swept", 
        "pfsense": "pfSense", 
        "testing": "Testing", 
        "securid": "SecurID", 
        "talend": "Talend", 
        "analytics": "Analytics", 
        "radius": "Radius", 
        "cleo": "Cleo", 
        "avention": "Avention", 
        "adstage": "Adstage", 
        "eleap": "eLeaP", 
        "optimum": "Optimum", 
        "financials": "Financials", 
        "ehopper": "eHopper", 
        "mxtoolbox": "MXToolbox", 
        "memrise": "Memrise", 
        "sourcing": "Sourcing", 
        "cloze": "Cloze", 
        "stamps": "Stamps", 
        "melissa": "Melissa", 
        "rightsignature": "Rightsignature", 
        "scoro": "Scoro", 
        "easybib": "EasyBib", 
        "365": "365", 
        "textmagic": "TextMagic", 
        "360": "360", 
        "discovery": "Discovery", 
        "we": "We", 
        "dotloop": "dotloop", 
        "bizzabo": "Bizzabo", 
        "windows": "Windows", 
        "promys": "PROMYS", 
        "planner": "Planner", 
        "curalate": "Curalate", 
        "vidyard": "Vidyard", 
        "edgar": "Edgar", 
        "bi360": "BI360", 
        "beeline": "Beeline", 
        "sketch": "Sketch", 
        "mobilize": "Mobilize", 
        "garageband": "GarageBand", 
        "expense": "Expense", 
        "com": "Com", 
        "highcharts": "Highcharts", 
        "and": "AND", 
        "widen": "Widen", 
        "artesian": "Artesian", 
        "addshoppers": "Addshoppers", 
        "gopher": "Gopher", 
        "tubemogul": "TubeMogul", 
        "periscope": "Periscope", 
        "framework": "Framework", 
        "majestic": "Majestic", 
        "quintly": "quintly", 
        "lemax": "Lemax", 
        "iterable": "Iterable", 
        "codeigniter": "CodeIgniter", 
        "savo": "SAVO", 
        "chrome": "Chrome", 
        "muck": "Muck", 
        "trigger": "Trigger", 
        "netbase": "NetBase", 
        "homebase": "Homebase", 
        "acuity": "Acuity", 
        "website": "Website", 
        "sendinblue": "SendinBlue", 
        "life": "Life", 
        "leankit": "LeanKit", 
        "databox": "Databox", 
        "enterprises": "Enterprises", 
        "coherent": "Coherent", 
        "craft": "Craft", 
        "espatial": "eSpatial", 
        "filetrac": "FileTrac", 
        "workloud": "Workloud", 
        "commerce": "Commerce", 
        "n": "N", 
        "intelex": "Intelex", 
        "kustomer": "Kustomer", 
        "localytics": "Localytics", 
        "novatus": "Novatus", 
        "insidesales": "InsideSales", 
        "smugmug": "SmugMug", 
        "voice": "Voice", 
        "wishpond": "Wishpond", 
        "simpletax": "SimpleTax", 
        "iq": "IQ", 
        "ip": "IP", 
        "is": "Is", 
        "toolkit": "Toolkit", 
        "ii": "II", 
        "player": "Player", 
        "berke": "Berke", 
        "io": "Io", 
        "in": "In", 
        "t": "T", 
        "id": "ID", 
        "orbund": "Orbund", 
        "rmail": "RMail", 
        "matomo": "Matomo", 
        "things": "Things", 
        "couchdb": "CouchDB", 
        "signable": "Signable", 
        "inventory": "Inventory", 
        "storify": "Storify", 
        "chartio": "Chartio", 
        "shmoop": "Shmoop", 
        "workforce": "Workforce", 
        "rain": "Rain", 
        "intuit": "Intuit", 
        "gotomypc": "GoToMyPC", 
        "fuse": "Fuse", 
        "lacerte": "Lacerte", 
        "postmark": "Postmark", 
        "aircall": "Aircall", 
        "tune": "TUNE", 
        "freemake": "Freemake", 
        "epx": "EPX", 
        "jekyll": "Jekyll", 
        "moovweb": "Moovweb", 
        "charlie": "Charlie", 
        "codility": "Codility", 
        "drip": "Drip", 
        "centos": "CentOS", 
        "maximo": "Maximo", 
        "bugzilla": "Bugzilla", 
        "epm": "EPM", 
        "the": "The", 
        "corporate": "Corporate", 
        "pubmatic": "PubMatic", 
        "socialchorus": "SocialChorus", 
        "unified": "Unified", 
        "just": "just", 
        "excel": "Excel", 
        "newton": "Newton", 
        "yed": "yEd", 
        "bizagi": "Bizagi", 
        "bandwidth": "Bandwidth", 
        "alexandria": "Alexandria", 
        "human": "Human", 
        "brackets": "Brackets", 
        "successfactors": "SuccessFactors", 
        "handshake": "Handshake", 
        "nudge": "Nudge", 
        "mediafire": "MediaFire", 
        "agile": "Agile", 
        "cervis": "CERVIS", 
        "ascente": "Ascente", 
        "pharmacy": "Pharmacy", 
        "opencv": "OpenCV", 
        "malwarebytes": "Malwarebytes", 
        "opensesame": "OpenSesame", 
        "board": "BOARD", 
        "easy": "Easy", 
        "hat": "Hat", 
        "humanity": "Humanity", 
        "whatfix": "Whatfix", 
        "maya": "Maya", 
        "buzzstream": "BuzzStream", 
        "quire": "Quire", 
        "optimizely": "Optimizely", 
        "1crm": "1CRM", 
        "businessworks": "BusinessWorks", 
        "perfecto": "Perfecto", 
        "airdev": "AirDev", 
        "invoca": "Invoca", 
        "realm": "Realm", 
        "hiringthing": "HiringThing", 
        "webinars": "Webinars", 
        "myob": "MYOB", 
        "channeladvisor": "ChannelAdvisor", 
        "bpc": "BPC", 
        "trackmaven": "TrackMaven", 
        "hunt": "Hunt", 
        "alice": "ALICE", 
        "sirius": "SIRIUS", 
        "specific": "Specific", 
        "remind": "Remind", 
        "kentico": "Kentico", 
        "orientdb": "OrientDB", 
        "pdffiller": "PDFfiller", 
        "security": "Security", 
        "rstudio": "RStudio", 
        "cirrus": "Cirrus", 
        "conversica": "Conversica", 
        "right": "Right", 
        "crowd": "Crowd", 
        "people": "People", 
        "physician": "Physician", 
        "giveffect": "Giveffect", 
        "mileage": "Mileage", 
        "advertise": "Advertise", 
        "intellect": "Intellect", 
        "eyeson": "eyeson", 
        "cakemail": "Cakemail", 
        "irecruit": "iRecruit", 
        "for": "For", 
        "recurly": "Recurly", 
        "chatra": "Chatra", 
        "plone": "Plone", 
        "wso2": "WSO2", 
        "tracker": "Tracker", 
        "carto": "CARTO", 
        "allocate": "Allocate", 
        "woopra": "Woopra", 
        "core": "Core", 
        "maxymiser": "Maxymiser", 
        "leagueapps": "LeagueApps", 
        "subscriptions": "Subscriptions", 
        "marketing": "Marketing", 
        "dental": "Dental", 
        "ektron": "Ektron", 
        "corp": "Corp", 
        "bolt": "Bolt", 
        "keeper": "Keeper", 
        "khan": "Khan", 
        "post": "Post", 
        "manufacturing": "Manufacturing", 
        "yodle": "Yodle", 
        "gartner": "Gartner", 
        "acom": "ACOM", 
        "etapestry": "eTapestry", 
        "plum": "Plum", 
        "cayan": "Cayan", 
        "joomla": "Joomla", 
        "plus": "Plus", 
        "feefo": "Feefo", 
        "exchanger": "Exchanger", 
        "obs": "OBS", 
        "facetime": "Facetime", 
        "consulting": "Consulting", 
        "aha": "Aha", 
        "appointy": "Appointy", 
        "freshdesk": "Freshdesk", 
        "facility": "Facility", 
        "maxwell": "Maxwell", 
        "sugarcrm": "Sugarcrm", 
        "float": "Float", 
        "delighted": "Delighted", 
        "locator": "Locator", 
        "systemes": "Systemes", 
        "cloudapp": "CloudApp", 
        "chime": "Chime", 
        "freshmail": "FreshMail", 
        "lodgify": "Lodgify", 
        "git": "Git", 
        "fabric": "Fabric", 
        "support": "support", 
        "contactually": "Contactually", 
        "affise": "Affise", 
        "mintel": "Mintel", 
        "nova": "Nova", 
        "redmine": "Redmine", 
        "wordpress": "WordPress", 
        "editor": "Editor", 
        "way": "Way", 
        "spring": "Spring", 
        "call": "Call", 
        "drchrono": "drchrono", 
        "loopio": "Loopio", 
        "jimdo": "Jimdo", 
        "rhel": "RHEL", 
        "medium": "Medium", 
        "form": "Form", 
        "epsilon": "Epsilon", 
        "paypal": "PayPal", 
        "azure": "Azure", 
        "buckingham": "Buckingham", 
        "clickdesk": "ClickDesk", 
        "needles": "Needles", 
        "heap": "Heap", 
        "vinsolutions": "VinSolutions", 
        "infor": "Infor", 
        "true": "True", 
        "rapidresponse": "RapidResponse", 
        "ubiq": "Ubiq", 
        "rippling": "Rippling", 
        "muster": "Muster", 
        "procurify": "Procurify", 
        "rack": "Rack", 
        "montage": "Montage", 
        "qlik": "Qlik", 
        "amilia": "Amilia", 
        "blogin": "BlogIn", 
        "boomerang": "Boomerang", 
        "trio": "Trio", 
        "computing": "Computing", 
        "scheduleanywhere": "ScheduleAnywhere", 
        "xenapp": "XenApp", 
        "sprinklr": "Sprinklr", 
        "zend": "Zend", 
        "sale": "Sale", 
        "gemini": "Gemini", 
        "inetsoft": "InetSoft", 
        "accounting": "Accounting", 
        "annoying": "Annoying", 
        "incode": "Incode", 
        "animate": "Animate", 
        "physical": "Physical", 
        "ninjaoutreach": "Ninjaoutreach", 
        "vista": "Vista", 
        "dataxu": "dataxu", 
        "tix": "Tix", 
        "kudos": "Kudos", 
        "appveyor": "AppVeyor", 
        "insuresign": "InsureSign", 
        "timetrade": "TimeTrade", 
        "digital": "Digital", 
        "test": "Test", 
        "jenkins": "Jenkins", 
        "roll": "Roll", 
        "brushfire": "Brushfire", 
        "node": "Node", 
        "gathercontent": "GatherContent", 
        "nuance": "Nuance", 
        "sling": "Sling", 
        "toad": "Toad", 
        "connectwise": "ConnectWise", 
        "zenhub": "ZenHub", 
        "eversign": "eversign", 
        "fireeye": "FireEye", 
        "outreach": "Outreach", 
        "yahoo": "Yahoo", 
        "filmora": "Filmora", 
        "sql": "SQL", 
        "poptin": "Poptin", 
        "companyhub": "CompanyHub", 
        "bitbucket": "Bitbucket", 
        "scribus": "Scribus", 
        "tallium": "Tallium", 
        "movavi": "Movavi", 
        "wrike": "Wrike", 
        "bambu": "Bambu", 
        "omnigraffle": "OmniGraffle", 
        "time": "Time", 
        "igloo": "Igloo", 
        "clickup": "ClickUp", 
        "coach": "Coach", 
        "managed": "Managed", 
        "chain": "Chain", 
        "penta": "PENTA", 
        "global": "Global", 
        "apto": "Apto", 
        "leads": "Leads", 
        "manager": "Manager", 
        "mile": "Mile", 
        "nuxeo": "Nuxeo", 
        "llc": "Llc", 
        "leady": "Leady", 
        "creative": "Creative", 
        "row": "Row", 
        "flask": "Flask", 
        "denticon": "Denticon", 
        "flash": "flash", 
        "gantter": "Gantter", 
        "duolingo": "Duolingo", 
        "kindful": "Kindful", 
        "panacea": "Panacea", 
        "rubicon": "Rubicon", 
        "veryconnect": "VeryConnect", 
        "sculptris": "Sculptris", 
        "brandwatch": "Brandwatch", 
        "broadly": "Broadly", 
        "aprio": "Aprio", 
        "logicgate": "LogicGate", 
        "consolidation": "Consolidation", 
        "choice": "Choice", 
        "vegas": "VEGAS", 
        "klout": "Klout", 
        "stays": "Stays", 
        "bartender": "BarTender", 
        "snapapp": "SnapApp", 
        "exact": "Exact", 
        "ecoach": "eCoach", 
        "level": "Level", 
        "careerbuilder": "CareerBuilder", 
        "proposals": "Proposals", 
        "gun": "Gun", 
        "surepayroll": "SurePayroll", 
        "team": "Team", 
        "quick": "Quick", 
        "lever": "Lever", 
        "fyle": "Fyle", 
        "spigit": "Spigit", 
        "bonfire": "Bonfire", 
        "buildium": "Buildium", 
        "upper": "Upper", 
        "blackbaud": "Blackbaud", 
        "trend": "Trend", 
        "veeqo": "Veeqo", 
        "shoeboxed": "Shoeboxed", 
        "d": "D", 
        "noteninja": "Noteninja", 
        "ioffice": "iOFFICE", 
        "athenahealth": "athenahealth", 
        "anaconda": "Anaconda", 
        "patient": "Patient", 
        "fomo": "Fomo", 
        "growlabs": "Growlabs", 
        "tidio": "Tidio", 
        "appear": "appear", 
        "spiro": "Spiro", 
        "icinga": "Icinga", 
        "corecon": "Corecon", 
        "logmein": "LogMeIn", 
        "ssis": "SSIS", 
        "reply": "Reply", 
        "informatica": "Informatica", 
        "xplor": "Xplor", 
        "piktochart": "Piktochart", 
        "teamleader": "Teamleader", 
        "barcode": "Barcode", 
        "transportation": "Transportation", 
        "learn": "learn", 
        "yardi": "Yardi", 
        "azendoo": "Azendoo", 
        "akkencloud": "AkkenCloud", 
        "groups": "Groups", 
        "mockups": "Mockups", 
        "apache": "Apache", 
        "teamviewer": "TeamViewer", 
        "servicenow": "ServiceNow", 
        "box": "Box", 
        "sellsy": "Sellsy", 
        "shift": "Shift", 
        "bot": "Bot", 
        "queue": "Queue", 
        "lightwave": "LightWave", 
        "hospitality": "Hospitality", 
        "bob": "bob", 
        "kannu": "Kannu", 
        "alldata": "Alldata", 
        "elucidat": "Elucidat", 
        "freshbooks": "Freshbooks", 
        "tasks": "Tasks", 
        "os": "OS", 
        "wistia": "Wistia", 
        "similarweb": "SimilarWeb", 
        "filezilla": "FileZilla", 
        "proposify": "Proposify", 
        "xero": "Xero", 
        "sciquest": "SciQuest", 
        "plm": "PLM", 
        "market": "Market", 
        "dynamodb": "DynamoDB", 
        "projector": "Projector", 
        "working": "Working", 
        "gospotcheck": "GoSpotCheck", 
        "duda": "Duda", 
        "twitonomy": "Twitonomy", 
        "live": "Live", 
        "quandrant": "Quandrant", 
        "visio": "Visio", 
        "mouseflow": "Mouseflow", 
        "sharpen": "Sharpen", 
        "conductor": "Conductor", 
        "club": "Club", 
        "cohesity": "Cohesity", 
        "visual": "Visual", 
        "persistiq": "PersistIQ", 
        "everywhere": "Everywhere", 
        "linkody": "Linkody", 
        "evercontact": "Evercontact", 
        "emptoris": "Emptoris", 
        "discoverorg": "DiscoverOrg", 
        "insights": "Insights", 
        "logos": "Logos", 
        "bitrix24": "Bitrix24", 
        "ibm": "IBM", 
        "julius": "Julius", 
        "ibe": "iBE", 
        "reviews": "Reviews", 
        "kinnser": "Kinnser", 
        "brightidea": "Brightidea", 
        "spx": "SPX", 
        "crazy": "Crazy", 
        "stream": "Stream", 
        "ranking": "Ranking", 
        "nexus": "NEXUS", 
        "enablement": "Enablement", 
        "ordant": "Ordant", 
        "agent": "Agent", 
        "shopgate": "Shopgate", 
        "phpstorm": "PhpStorm", 
        "evite": "Evite", 
        "spa": "Spa", 
        "simulink": "Simulink", 
        "woodpecker": "Woodpecker", 
        "monitoring": "Monitoring", 
        "mailjet": "Mailjet", 
        "tailwind": "Tailwind", 
        "kissmetrics": "Kissmetrics", 
        "eloquent": "Eloquent", 
        "brand": "Brand", 
        "contracts": "Contracts", 
        "pure": "Pure", 
        "countly": "Countly", 
        "fpx": "FPX", 
        "followerwonk": "Followerwonk", 
        "product": "Product", 
        "designer": "Designer", 
        "explorer": "Explorer", 
        "walkme": "WalkMe", 
        "docverify": "DocVerify", 
        "praiseworthy": "Praiseworthy", 
        "tririga": "Tririga", 
        "applications": "Applications", 
        "membership": "Membership", 
        "mae": "Mae", 
        "mad": "Mad", 
        "fatcow": "FatCow", 
        "rezdy": "Rezdy", 
        "data": "Data", 
        "practicum": "Practicum", 
        "luminate": "Luminate", 
        "ahrefs": "Ahrefs", 
        "liquid": "Liquid", 
        "ecquire": "Ecquire", 
        "browserstack": "BrowserStack", 
        "applicant": "Applicant", 
        "inform": "Inform", 
        "jitterbit": "Jitterbit", 
        "fastspring": "FastSpring", 
        "onbase": "OnBase", 
        "datastax": "DataStax", 
        "se": "SE", 
        "bigsis": "BigSIS", 
        "siteminder": "SiteMinder", 
        "sharepoint": "SharePoint", 
        "lyris": "Lyris", 
        "twilio": "Twilio", 
        "clubhouse": "Clubhouse", 
        "maestroconference": "MaestroConference", 
        "indeed": "Indeed", 
        "tendenci": "Tendenci", 
        "privia": "Privia", 
        "1and1": "1and1", 
        "course": "Course", 
        "plc": "Plc", 
        "kayako": "Kayako", 
        "leadspace": "Leadspace", 
        "omadi": "Omadi", 
        "icims": "iCIMS", 
        "tula": "Tula", 
        "raventools": "RavenTools", 
        "namecheap": "Namecheap", 
        "group": "Group", 
        "formerly": "formerly", 
        "arduino": "Arduino", 
        "tracks": "Tracks", 
        "chargent": "Chargent", 
        "forms": "Forms", 
        "platform": "Platform", 
        "snapengage": "SnapEngage", 
        "calendly": "Calendly", 
        "mpulse": "MPulse", 
        "mail": "Mail", 
        "granular": "Granular", 
        "ebsta": "Ebsta", 
        "non": "Non", 
        "conversations": "Conversations", 
        "bound": "Bound", 
        "records": "Records", 
        "resource": "Resource", 
        "provision": "Provision", 
        "hall": "Hall", 
        "halo": "Halo", 
        "sendwithus": "Sendwithus", 
        "aerospike": "Aerospike", 
        "guidewire": "Guidewire", 
        "opera": "OPERA", 
        "clutch": "Clutch", 
        "gerrit": "Gerrit", 
        "aleks": "ALEKS", 
        "klipfolio": "Klipfolio", 
        "onfleet": "Onfleet", 
        "rock": "Rock", 
        "brightwheel": "brightwheel", 
        "lastpass": "LastPass", 
        "em": "eM", 
        "sifter": "Sifter", 
        "square": "Square", 
        "continu": "Continu", 
        "usertesting": "UserTesting", 
        "screencastify": "Screencastify", 
        "signage": "Signage", 
        "workboard": "Workboard", 
        "loopnet": "LoopNet", 
        "peopleperhour": "PeoplePerHour", 
        "spamfighter": "SPAMfighter", 
        "avora": "Avora", 
        "container": "Container", 
        "stitch": "Stitch", 
        "profit": "Profit", 
        "mitrefinch": "Mitrefinch", 
        "squared": "Squared", 
        "factory": "Factory", 
        "papers": "Papers", 
        "pathmatics": "Pathmatics", 
        "internet": "Internet", 
        "kintone": "kintone", 
        "hcm": "Hcm", 
        "erecruit": "erecruit", 
        "monster": "Monster", 
        "erp": "ERP", 
        "lms": "LMS", 
        "incentives": "Incentives", 
        "datto": "Datto", 
        "cart": "Cart", 
        "plex": "Plex", 
        "oasis": "OASIS", 
        "synthesio": "Synthesio", 
        "fusion": "Fusion", 
        "vinyl": "VINYL", 
        "snagajob": "Snagajob", 
        "mimi": "Mimi", 
        "org": "org", 
        "datahug": "Datahug", 
        "advance": "Advance", 
        "training": "training", 
        "getfivestars": "GetFiveStars", 
        "landesk": "LANDESK", 
        "gusto": "Gusto", 
        "motion": "Motion", 
        "sitefinity": "Sitefinity", 
        "avira": "Avira", 
        "storeya": "StoreYa", 
        "jetpack": "Jetpack", 
        "nonprofit": "Nonprofit", 
        "lusha": "Lusha", 
        "first": "First", 
        "oncontact": "Oncontact", 
        "redhat": "RedHat", 
        "bolste": "Bolste", 
        "predictive": "Predictive", 
        "acquisio": "Acquisio", 
        "one": "One", 
        "anypoint": "Anypoint", 
        "ovh": "OVH", 
        "zap": "Zap", 
        "iam": "IAM", 
        "city": "City", 
        "surveys": "Surveys", 
        "prweb": "PRWeb", 
        "fmx": "FMX", 
        "response": "Response", 
        "returns": "Returns", 
        "iaas": "IaaS", 
        "appcelerator": "Appcelerator", 
        "zerion": "Zerion", 
        "bear": "Bear", 
        "hub": "Hub", 
        "boomtown": "BoomTown", 
        "brightroll": "BrightRoll", 
        "ingres": "Ingres", 
        "shipbob": "ShipBob", 
        "insite": "InSite", 
        "grunt": "Grunt", 
        "paperform": "Paperform", 
        "inventor": "Inventor", 
        "11": "11", 
        "gaggleamp": "GaggleAMP", 
        "edition": "Edition", 
        "18": "18", 
        "future": "Future", 
        "fivetran": "Fivetran", 
        "sublime": "Sublime", 
        "simpledb": "SimpleDB", 
        "influitive": "Influitive", 
        "righthello": "RightHello", 
        "pro": "Pro", 
        "premier": "Premier", 
        "crossover": "Crossover", 
        "rent": "Rent", 
        "sas": "SAS", 
        "sap": "sap", 
        "inews": "iNEWS", 
        "pagemodo": "Pagemodo", 
        "cassandra": "Cassandra", 
        "skuid": "Skuid", 
        "instapage": "Instapage", 
        "altapoint": "AltaPoint", 
        "sciences": "Sciences", 
        "socialbakers": "Socialbakers", 
        "photoscape": "PhotoScape", 
        "xmind": "XMind", 
        "online": "Online", 
        "performance": "Performance", 
        "innovator": "Innovator", 
        "asknicely": "AskNicely", 
        "esales": "eSales", 
        "all": "All", 
        "terminus": "Terminus", 
        "aspen": "Aspen", 
        "trace": "Trace", 
        "evernote": "Evernote", 
        "buffer": "Buffer", 
        "mediamath": "MediaMath", 
        "visitors": "Visitors", 
        "donation": "DONATION", 
        "ticketbud": "Ticketbud", 
        "tracx": "Tracx", 
        "pages": "Pages", 
        "ariba": "Ariba", 
        "hostgator": "HostGator", 
        "efit": "eFit", 
        "freelancer": "Freelancer", 
        "ticketleap": "Ticketleap", 
        "later": "Later", 
        "drive": "Drive", 
        "vtiger": "Vtiger", 
        "properly": "Properly", 
        "rackspace": "Rackspace", 
        "professional": "Professional", 
        "senior": "Senior", 
        "mediaroom": "MediaRoom", 
        "laserfiche": "Laserfiche", 
        "zoom": "Zoom", 
        "slope": "Slope", 
        "madison": "Madison", 
        "mightycall": "MightyCall", 
        "atom": "Atom", 
        "wyng": "Wyng", 
        "gooddata": "GoodData", 
        "genesis2": "Genesis2", 
        "itrak": "ITRAK", 
        "forecast": "Forecast", 
        "help": "Help", 
        "dice": "Dice", 
        "proshop": "ProShop", 
        "formstack": "Formstack", 
        "mfiles": "MFiles", 
        "jolt": "Jolt", 
        "ringostat": "Ringostat", 
        "freeagent": "FreeAgent", 
        "rerun": "Rerun", 
        "black": "Black", 
        "sierra": "Sierra", 
        "soapui": "SoapUI", 
        "bridge": "Bridge", 
        "hippo": "Hippo", 
        "blendo": "Blendo", 
        "viewpoint": "Viewpoint", 
        "get": "Get", 
        "thrivehive": "ThriveHive", 
        "assistant": "assistant", 
        "salestools": "Salestools", 
        "truly": "Truly", 
        "ssg": "SSG", 
        "moxie": "Moxie", 
        "yammer": "Yammer", 
        "pinnacle": "Pinnacle", 
        "checkr": "Checkr", 
        "infogram": "Infogram", 
        "websitebuilder": "WebsiteBuilder", 
        "apricot": "Apricot", 
        "webmerge": "WebMerge", 
        "calliduscloud": "CallidusCloud", 
        "vision": "Vision", 
        "rms": "RMS", 
        "netx": "NetX", 
        "owncloud": "ownCloud", 
        "efax": "eFax", 
        "churnzero": "ChurnZero", 
        "namely": "Namely", 
        "shippo": "Shippo", 
        "appbuilder": "AppBuilder", 
        "pingdom": "Pingdom", 
        "turbine": "Turbine", 
        "apptivo": "Apptivo", 
        "crystal": "Crystal", 
        "mendix": "Mendix", 
        "workbooks": "Workbooks", 
        "ubervu": "uberVU", 
        "webflow": "Webflow", 
        "mandarin": "Mandarin", 
        "aviso": "Aviso", 
        "planview": "Planview", 
        "fusioncharts": "FusionCharts", 
        "pure360": "Pure360", 
        "bunk1": "Bunk1", 
        "glassdoor": "Glassdoor", 
        "chargeover": "ChargeOver", 
        "geckoboard": "Geckoboard", 
        "infrastructure": "Infrastructure", 
        "yume": "YuMe", 
        "vertical": "Vertical", 
        "domo": "Domo", 
        "websphere": "WebSphere", 
        "jw": "JW", 
        "analyzer": "Analyzer", 
        "js": "Js", 
        "guitar": "Guitar", 
        "invision": "Invision", 
        "3cx": "3CX", 
        "spitfire": "SpitFire", 
        "skillshare": "Skillshare", 
        "lingvist": "Lingvist", 
        "qvidian": "Qvidian", 
        "site5": "Site5", 
        "payscale": "PayScale", 
        "contract": "Contract", 
        "tawk": "tawk", 
        "madcap": "Madcap", 
        "s": "s", 
        "datafield": "Datafield", 
        "mhelpdesk": "mHelpDesk", 
        "bigtime": "BigTime", 
        "adminonline": "AdminOnline", 
        "symfony": "Symfony", 
        "activematrix": "ActiveMatrix", 
        "pos": "POS", 
        "dispatch": "Dispatch", 
        "satisfaction": "Satisfaction", 
        "jaggaer": "JAGGAER", 
        "learning": "Learning", 
        "poll": "Poll", 
        "spark": "Spark", 
        "qlikview": "QlikView", 
        "answerdash": "Answerdash", 
        "listware": "Listware", 
        "certify": "Certify", 
        "goco": "GoCo", 
        "bamboohr": "BambooHR", 
        "touchpoint": "TouchPoint", 
        "workshop": "Workshop", 
        "bucketlist": "Bucketlist", 
        "informer": "Informer", 
        "boomi": "Boomi", 
        "engine": "Engine", 
        "bmc": "BMC", 
        "shortlist": "shortlist", 
        "shopping": "Shopping", 
        "creo": "Creo", 
        "sellhack": "SellHack", 
        "photos": "Photos", 
        "tibco": "TIBCO", 
        "convertize": "Convertize", 
        "sticky": "Sticky", 
        "ruby": "Ruby", 
        "former": "former", 
        "weebly": "Weebly", 
        "case": "Case", 
        "polly": "Polly", 
        "hightail": "Hightail", 
        "gingr": "Gingr", 
        "cash": "Cash", 
        "vwo": "VWO", 
        "mozenda": "Mozenda", 
        "zingle": "Zingle", 
        "zopim": "Zopim", 
        "bomgar": "Bomgar", 
        "loxo": "Loxo", 
        "force": "Force", 
        "todoist": "Todoist", 
        "freedcamp": "Freedcamp", 
        "ulysses": "Ulysses", 
        "parse": "Parse", 
        "good": "Good", 
        "grapher": "Grapher", 
        "return": "Return", 
        "technology": "Technology", 
        "appcues": "Appcues", 
        "indinero": "inDinero", 
        "elcom": "Elcom", 
        "redfin": "Redfin", 
        "proto": "Proto", 
        "media": "media", 
        "picmonkey": "PicMonkey", 
        "gocanvas": "GoCanvas", 
        "dealer": "Dealer", 
        "authentication": "Authentication", 
        "html": "HTML", 
        "netweaver": "NetWeaver", 
        "document": "Document", 
        "events": "events", 
        "readytalk": "ReadyTalk", 
        "workplace": "Workplace", 
        "oil": "Oil", 
        "singapore": "Singapore", 
        "assist": "Assist", 
        "slideshare": "SlideShare", 
        "elina": "Elina", 
        "director": "Director", 
        "defi": "defi", 
        "tracking": "Tracking", 
        "undefined": "undefined", 
        "appsflyer": "AppsFlyer", 
        "nuclide": "Nuclide", 
        "breeze": "Breeze", 
        "solve": "solve", 
        "communications": "Communications", 
        "genie": "Genie", 
        "northplains": "Northplains", 
        "valant": "Valant", 
        "riddle": "Riddle", 
        "qoute": "Qoute", 
        "phpmyadmin": "phpMyAdmin", 
        "money": "Money", 
        "neon": "Neon", 
        "ci": "CI", 
        "kill": "Kill", 
        "emarsys": "Emarsys", 
        "sitecore": "Sitecore", 
        "socialflow": "SocialFlow", 
        "sendbird": "SendBird", 
        "autocad": "AutoCAD", 
        "desktop": "Desktop", 
        "subversion": "Subversion", 
        "olark": "Olark", 
        "rosy": "Rosy", 
        "libreoffice": "LibreOffice", 
        "hyphen": "Hyphen", 
        "real": "Real", 
        "moz": "Moz", 
        "genbook": "Genbook", 
        "hover": "Hover", 
        "amo": "AMO", 
        "marcus": "Marcus", 
        "psa": "PSA", 
        "zephyr": "Zephyr", 
        "huddle": "Huddle", 
        "sumo": "Sumo", 
        "warehouse": "Warehouse", 
        "moo": "MOO", 
        "sccm": "SCCM", 
        "world": "World", 
        "rollbar": "Rollbar", 
        "vocus": "Vocus", 
        "yotpo": "Yotpo", 
        "intel": "Intel", 
        "collective": "Collective", 
        "shelf": "Shelf", 
        "ivanti": "Ivanti", 
        "audience": "Audience", 
        "123": "123", 
        "blackberry": "BlackBerry", 
        "anti": "Anti", 
        "tower": "Tower", 
        "aurea": "Aurea", 
        "ultipro": "UltiPro", 
        "hrweb": "HRweb", 
        "imeet": "Imeet", 
        "cisco": "Cisco", 
        "apartments": "Apartments", 
        "beamery": "Beamery", 
        "titan": "Titan", 
        "ascend": "Ascend", 
        "accubid": "Accubid", 
        "outsystems": "OutSystems", 
        "24sevenoffice": "24SevenOffice", 
        "1password": "1Password", 
        "wordtracker": "WordTracker", 
        "viral": "Viral", 
        "confirmit": "Confirmit", 
        "glisser": "Glisser", 
        "divvy": "Divvy", 
        "redis": "Redis", 
        "legal": "Legal", 
        "ellie": "Ellie", 
        "smartsearch": "SmartSearch", 
        "crowdfire": "Crowdfire", 
        "hiver": "Hiver", 
        "criteo": "Criteo", 
        "kvm": "KVM", 
        "power": "Power", 
        "asap": "ASAP", 
        "asterisk": "Asterisk", 
        "radial": "Radial", 
        "broker": "Broker", 
        "springcm": "SpringCM", 
        "komfo": "Komfo", 
        "boomr": "Boomr", 
        "vainu": "Vainu", 
        "assembla": "Assembla", 
        "quip": "Quip", 
        "on": "On", 
        "stone": "Stone", 
        "logdna": "LogDNA", 
        "central": "Central", 
        "firebird": "Firebird", 
        "ace": "ACE", 
        "of": "of", 
        "entrata": "Entrata", 
        "panna": "Panna", 
        "acs": "ACS", 
        "srp": "SRP", 
        "estimator": "Estimator", 
        "paychex": "Paychex", 
        "optmyzr": "Optmyzr", 
        "backup": "Backup", 
        "coupa": "Coupa", 
        "penelope": "Penelope", 
        "paycom": "Paycom", 
        "accounts": "ACCOUNTS", 
        "inbox": "INBOX", 
        "survio": "Survio", 
        "einstein": "Einstein", 
        "wisestamp": "WiseStamp", 
        "movable": "Movable", 
        "youcanbookme": "YouCanBookMe", 
        "your": "Your", 
        "tofino": "Tofino", 
        "wildfire": "Wildfire", 
        "newvoicemedia": "NewVoiceMedia", 
        "circleci": "CircleCI", 
        "thera": "thera", 
        "cats": "CATS", 
        "stars": "STARS", 
        "bubble": "Bubble", 
        "liferay": "Liferay", 
        "clicktime": "ClickTime", 
        "mindbody": "MINDBODY", 
        "complete": "Complete", 
        "riva": "Riva", 
        "pitcher": "Pitcher", 
        "smartrecruiters": "SmartRecruiters", 
        "amplifi": "Amplifi", 
        "freshservice": "Freshservice", 
        "lexisnexis": "LexisNexis", 
        "addresstwo": "Addresstwo", 
        "insightsquared": "InsightSquared", 
        "technologies": "Technologies", 
        "macos": "macOS", 
        "amplify": "Amplify", 
        "hire": "Hire", 
        "fraud": "Fraud", 
        "academyocean": "AcademyOcean", 
        "floqast": "FloQast", 
        "embedded": "Embedded", 
        "tweetchat": "tweetchat", 
        "receptive": "Receptive", 
        "ember": "ember", 
        "teamforge": "TeamForge", 
        "treasure": "Treasure", 
        "joomag": "Joomag", 
        "builders": "Builders", 
        "care": "Care", 
        "rethinkdb": "RethinkDB", 
        "gong": "Gong", 
        "ad": "Ad", 
        "ag": "Ag", 
        "cinema": "Cinema", 
        "certain": "Certain", 
        "fullcontact": "FullContact", 
        "sales": "Sales", 
        "deep": "Deep", 
        "nagios": "Nagios", 
        "ap": "AP", 
        "as": "as", 
        "deem": "Deem", 
        "at": "AT", 
        "typepad": "TypePad", 
        "encompass": "Encompass", 
        "quickbooks": "QuickBooks", 
        "fiddler": "Fiddler", 
        "evergage": "Evergage", 
        "animoto": "Animoto", 
        "todo": "Todo", 
        "capterra": "Capterra", 
        "mathematica": "Mathematica", 
        "storage": "Storage", 
        "makesbridge": "Makesbridge", 
        "workday": "Workday", 
        "field": "Field", 
        "5": "5", 
        "talentspace": "TalentSpace", 
        "edgenet": "Edgenet", 
        "suites": "Suites", 
        "annex": "Annex", 
        "zendesk": "Zendesk", 
        "drift": "Drift", 
        "gifts": "GIFTS", 
        "podium": "Podium", 
        "catia": "CATIA", 
        "carbonite": "Carbonite", 
        "dropbox": "Dropbox", 
        "erpag": "ERPAG", 
        "network": "Network", 
        "remote": "Remote", 
        "assets": "Assets", 
        "trulia": "Trulia", 
        "kahoot": "Kahoot", 
        "allscripts": "Allscripts", 
        "booker": "Booker", 
        "behavioral": "Behavioral", 
        "cores": "Cores", 
        "medallia": "Medallia", 
        "adjutant": "Adjutant", 
        "curata": "Curata", 
        "colleges": "Colleges", 
        "curate": "Curate", 
        "ptc": "PTC", 
        "vertafore": "Vertafore", 
        "zenprospect": "ZenProspect", 
        "upkeep": "UpKeep", 
        "raklet": "Raklet", 
        "uxpin": "UXPin", 
        "liveperson": "LivePerson", 
        "versum": "Versum", 
        "tz": "TZ", 
        "freeconference": "FreeConference", 
        "idatalabs": "iDatalabs", 
        "azalead": "Azalead", 
        "plesk": "Plesk", 
        "quantcast": "Quantcast", 
        "to": "To", 
        "program": "program", 
        "openproject": "OpenProject", 
        "fergus": "Fergus", 
        "crimson": "Crimson", 
        "sustain": "Sustain", 
        "getfeedback": "GetFeedback", 
        "propago": "Propago", 
        "activities": "Activities", 
        "sertifi": "Sertifi", 
        "premium": "Premium", 
        "erecord": "eRecord", 
        "clari": "Clari", 
        "tlore": "TLore", 
        "dashthis": "DashThis", 
        "greenrope": "GreenRope", 
        "scout": "Scout", 
        "totem": "Totem", 
        "cloudnine": "CloudNine", 
        "skysignature": "SkySignature", 
        "alma": "Alma", 
        "remodeling": "Remodeling", 
        "pandadoc": "PandaDoc", 
        "intricately": "Intricately", 
        "fiverr": "Fiverr", 
        "viber": "Viber", 
        "insideview": "InsideView", 
        "small": "Small", 
        "cloudingo": "Cloudingo", 
        "digioh": "Digioh", 
        "ora": "Ora", 
        "essbase": "Essbase", 
        "appointment": "Appointment", 
        "pluralsight": "Pluralsight", 
        "woocommerce": "WooCommerce", 
        "instagram": "Instagram", 
        "provar": "Provar", 
        "grasshopper": "Grasshopper", 
        "sync": "Sync", 
        "synergy": "Synergy", 
        "design": "Design", 
        "promoter": "Promoter", 
        "plugins": "Plugins", 
        "grouphigh": "GroupHigh", 
        "casual": "Casual", 
        "targetprocess": "Targetprocess", 
        "dial": "Dial", 
        "healthpro": "HealthPRO", 
        "clock": "Clock", 
        "magnolia": "Magnolia", 
        "clientsuccess": "ClientSuccess", 
        "brandfolder": "Brandfolder", 
        "wufoo": "Wufoo", 
        "figma": "Figma", 
        "memcached": "Memcached", 
        "public": "Public", 
        "gotoassist": "GoToAssist", 
        "full": "Full", 
        "raken": "RAKEN", 
        "rocketium": "Rocketium", 
        "surfer": "Surfer", 
        "beacon": "Beacon", 
        "firebase": "Firebase", 
        "jonas": "Jonas", 
        "gandi": "Gandi", 
        "rxnt": "RxNT", 
        "arena": "Arena", 
        "publisher": "Publisher", 
        "search": "Search", 
        "sender": "SENDER", 
        "apttus": "Apttus", 
        "compliance": "Compliance", 
        "smartdraw": "SmartDraw", 
        "naviance": "Naviance", 
        "experience": "Experience", 
        "espace": "eSPACE", 
        "nearpod": "Nearpod", 
        "workramp": "WorkRamp", 
        "advertising": "Advertising", 
        "social": "Social", 
        "streamline": "Streamline", 
        "desire2learn": "Desire2Learn", 
        "quotient": "Quotient", 
        "authorize": "Authorize", 
        "myschool": "MySchool", 
        "advocatehub": "AdvocateHub", 
        "parature": "Parature", 
        "datis": "Datis", 
        "demio": "Demio", 
        "vim": "Vim", 
        "flexmail": "Flexmail", 
        "trello": "Trello", 
        "eskill": "eSkill", 
        "janitorial": "Janitorial", 
        "marketo": "Marketo", 
        "hubstaff": "Hubstaff", 
        "attendance": "Attendance", 
        "eye": "Eye", 
        "lotame": "Lotame", 
        "rhev": "RHEV", 
        "splash": "Splash", 
        "archives": "Archives", 
        "automate": "Automate", 
        "meistertask": "MeisterTask", 
        "jive": "Jive", 
        "schoology": "Schoology", 
        "toggl": "Toggl", 
        "swoop": "Swoop", 
        "company": "Company", 
        "mozilla": "Mozilla", 
        "actus": "Actus", 
        "instrumental": "Instrumental", 
        "everhour": "Everhour", 
        "eschedule": "eSchedule", 
        "keyhole": "Keyhole", 
        "linkedin": "LinkedIn", 
        "known": "known", 
        "creativelive": "CreativeLive", 
        "livechat": "LiveChat", 
        "webmaster": "Webmaster", 
        "toutapp": "ToutApp", 
        "activecollab": "ActiveCollab", 
        "salesforce": "SalesForce", 
        "science": "Science", 
        "sentry": "Sentry", 
        "jda": "JDA", 
        "clockview": "ClockVIEW", 
        "etrak": "eTrak", 
        "v": "V", 
        "hasoffers": "HasOffers", 
        "propet": "ProPet", 
        "celtra": "Celtra", 
        "campsite": "CampSite", 
        "searchlight": "Searchlight", 
        "udemy": "Udemy", 
        "eidos": "EIDOS", 
        "adobe": "Adobe", 
        "magento": "Magento", 
        "numbers": "Numbers", 
        "sense": "Sense", 
        "freckle": "freckle", 
        "talkdesk": "Talkdesk", 
        "comscore": "comScore", 
        "pleo": "Pleo", 
        "aeroleads": "Aeroleads", 
        "revit": "Revit", 
        "mapr": "MapR", 
        "maps": "Maps", 
        "mapp": "Mapp", 
        "kapost": "Kapost", 
        "csp": "Csp", 
        "simplicity": "Simplicity", 
        "nutanix": "Nutanix", 
        "nexternal": "Nexternal", 
        "clicktale": "Clicktale", 
        "fi": "fi", 
        "mariadb": "MariaDB", 
        "lifecycle": "Lifecycle", 
        "a": "a", 
        "github": "GitHub", 
        "register": "Register", 
        "yoast": "Yoast", 
        "stash": "Stash", 
        "django": "Django", 
        "blueshift": "Blueshift", 
        "shore": "Shore", 
        "cloudstack": "CloudStack", 
        "pay": "Pay", 
        "birst": "Birst", 
        "egg": "Egg", 
        "intouch": "Intouch", 
        "photoshop": "Photoshop", 
        "mpzmail": "MPZMail", 
        "egnyte": "Egnyte", 
        "zonos": "Zonos", 
        "pendo": "Pendo", 
        "radar": "RADAR", 
        "kinsta": "Kinsta", 
        "perceptive": "Perceptive", 
        "bric": "BRIC", 
        "proofpoint": "Proofpoint", 
        "kinaxis": "Kinaxis", 
        "its": "ITS", 
        "developer": "Developer", 
        "24": "24", 
        "style": "Style", 
        "champs": "CHAMPS", 
        "sonarqube": "SonarQube", 
        "scom": "SCOM", 
        "selenium": "Selenium", 
        "unity": "Unity", 
        "systems": "Systems", 
        "coverity": "Coverity", 
        "thinkific": "Thinkific", 
        "applause": "Applause", 
        "lookout": "Lookout", 
        "interviewing": "Interviewing", 
        "cec": "Cec", 
        "pureconnect": "PureConnect", 
        "pagewiz": "Pagewiz", 
        "beekeeper": "Beekeeper", 
        "hunter": "Hunter", 
        "karbon": "Karbon", 
        "monitis": "Monitis", 
        "xchange": "Xchange", 
        "abacus": "Abacus", 
        "decisioncloud": "DecisionCloud", 
        "pmaps": "PMAPS", 
        "2u": "2U", 
        "klear": "Klear", 
        "cloudflare": "CloudFlare", 
        "ifs": "IFS", 
        "kace": "KACE", 
        "zapier": "Zapier", 
        "gitlab": "GitLab", 
        "2x": "2x", 
        "osiris": "Osiris", 
        "satismeter": "SatisMeter", 
        "micro": "Micro", 
        "genoo": "Genoo", 
        "lynda": "lynda", 
        "found": "Found", 
        "jmeter": "JMeter", 
        "oneflow": "Oneflow", 
        "timeneye": "Timeneye", 
        "generation": "Generation", 
        "idea": "Idea", 
        "tmetric": "TMetric", 
        "imanage": "iManage", 
        "connect": "Connect", 
        "quantum": "Quantum", 
        "advertisers": "Advertisers", 
        "beyond": "Beyond", 
        "paycor": "Paycor", 
        "event": "Event", 
        "bime": "Bime", 
        "skillport": "Skillport", 
        "mentimeter": "Mentimeter", 
        "sencha": "Sencha", 
        "doddle": "Doddle", 
        "research": "Research", 
        "doubledutch": "DoubleDutch", 
        "health": "Health", 
        "7": "7", 
        "tweetdeck": "TweetDeck", 
        "wintac": "Wintac", 
        "powersuite": "PowerSuite", 
        "evaluation": "Evaluation", 
        "asp": "ASP", 
        "sawyer": "Sawyer", 
        "userlike": "Userlike", 
        "brainshark": "Brainshark", 
        "solidworks": "SolidWorks", 
        "labs": "Labs", 
        "reason": "Reason", 
        "base": "Base", 
        "dotmailer": "dotmailer", 
        "visco": "VISCO", 
        "imgur": "Imgur", 
        "mailchimp": "MailChimp", 
        "planhat": "Planhat", 
        "launch": "Launch", 
        "drupal": "Drupal", 
        "practi": "Practi", 
        "orderbot": "Orderbot", 
        "leandata": "LeanData", 
        "audacity": "Audacity", 
        "circuit": "Circuit", 
        "heartbeat": "Heartbeat", 
        "calltrackingmetrics": "CallTrackingMetrics", 
        "resharper": "ReSharper", 
        "linking": "Linking", 
        "bitium": "Bitium", 
        "construct": "Construct", 
        "ameyo": "Ameyo", 
        "pablo": "Pablo", 
        "campground": "Campground", 
        "jabber": "Jabber", 
        "ecommerce": "eCommerce", 
        "powerdialer": "PowerDialer", 
        "mamp": "MAMP", 
        "interact": "Interact", 
        "memberclicks": "MemberClicks", 
        "rails": "Rails", 
        "collage": "Collage", 
        "station": "Station", 
        "leadmaster": "LeadMaster", 
        "slidebean": "Slidebean", 
        "jarvis": "Jarvis", 
        "store": "Store", 
        "vincere": "Vincere", 
        "powercenter": "PowerCenter", 
        "relationship": "Relationship", 
        "ncr": "NCR", 
        "salesscreen": "SalesScreen", 
        "touchbistro": "TouchBistro", 
        "livestream": "Livestream", 
        "newswire": "Newswire", 
        "translation": "Translation", 
        "esign": "eSign", 
        "webhr": "WebHR", 
        "tfs": "TFS", 
        "traps": "Traps", 
        "jquery": "jQuery", 
        "b": "B", 
        "aac": "AAC", 
        "recruitment": "Recruitment", 
        "horizons": "Horizons", 
        "klaviyo": "Klaviyo", 
        "lectora": "Lectora", 
        "goldmine": "GoldMine", 
        "architect": "Architect", 
        "brightlocal": "BrightLocal", 
        "video": "Video", 
        "phorest": "Phorest", 
        "pushcrew": "PushCrew", 
        "wisepops": "Wisepops", 
        "interactive": "interactive", 
        "clearslide": "ClearSlide", 
        "adestra": "Adestra", 
        "xactly": "Xactly", 
        "icertis": "Icertis", 
        "gedit": "gedit", 
        "stamplay": "Stamplay", 
        "intercall": "InterCall", 
        "chartmogul": "ChartMogul", 
        "chargify": "Chargify", 
        "verint": "Verint", 
        "resman": "ResMan", 
        "mountain": "Mountain", 
        "built": "Built", 
        "appfolio": "Appfolio", 
        "transactional": "Transactional", 
        "tinymce": "TinyMCE", 
        "payments": "Payments", 
        "k3": "K3", 
        "k2": "K2", 
        "clickbid": "ClickBid", 
        "vmware": "VMware", 
        "displayos": "DisplayOS", 
        "lytics": "Lytics", 
        "openshift": "OpenShift", 
        "blackboard": "Blackboard", 
        "rescuetime": "RescueTime", 
        "reach": "Reach", 
        "ucraft": "ucraft", 
        "confluence": "Confluence", 
        "hired": "Hired", 
        "experiences": "Experiences", 
        "plan": "plan", 
        "services": "Services", 
        "information": "Information", 
        "moqups": "Moqups", 
        "measured": "Measured", 
        "apptus": "Apptus", 
        "sharex": "ShareX", 
        "cyfe": "Cyfe", 
        "edmodo": "Edmodo", 
        "mobile": "Mobile", 
        "exo": "eXo", 
        "nitrogen": "Nitrogen", 
        "classdojo": "ClassDojo", 
        "riak": "Riak", 
        "phonegap": "PhoneGap", 
        "h2o": "H2o", 
        "storyline": "Storyline", 
        "netfortris": "NetFortris", 
        "medrio": "Medrio", 
        "jobjet": "Jobjet", 
        "administrate": "Administrate", 
        "unit4": "Unit4", 
        "microsoft": "Microsoft", 
        "conversant": "Conversant", 
        "hyper": "Hyper", 
        "commissions": "Commissions", 
        "xcode": "Xcode", 
        "fond": "Fond", 
        "hopper": "Hopper", 
        "entelo": "Entelo", 
        "bookings": "Bookings", 
        "youcanbook": "YouCanBook", 
        "elevio": "elevio", 
        "eschoolplus": "eSchoolPLUS", 
        "genexus": "GeneXus", 
        "networks": "Networks", 
        "blender": "Blender", 
        "tradeshift": "Tradeshift", 
        "19th": "19th", 
        "lightspeed": "Lightspeed", 
        "qintil": "Qintil", 
        "pricelabs": "PriceLabs", 
        "factor": "Factor", 
        "circle": "Circle", 
        "preno": "Preno", 
        "yourmembership": "YourMembership", 
        "counterpoint": "Counterpoint", 
        "imperva": "Imperva", 
        "clickability": "Clickability", 
        "express": "Express", 
        "keepass": "KeePass", 
        "recruiterbox": "Recruiterbox", 
        "capsule": "Capsule", 
        "veeva": "Veeva", 
        "international": "International", 
        "contentstack": "Contentstack", 
        "aconex": "Aconex", 
        "birdeye": "BirdEye", 
        "emails": "Emails", 
        "rfp": "RFP", 
        "continuum": "Continuum", 
        "harmonypsa": "HarmonyPSA", 
        "proclaim": "Proclaim", 
        "evisit": "eVisit", 
        "datawatch": "Datawatch", 
        "activity": "Activity", 
        "x": "X", 
        "wireshark": "Wireshark", 
        "instream": "InStream", 
        "inmotion": "inMotion", 
        "crm": "CRM", 
        "gosquared": "GoSquared", 
        "ses": "SES", 
        "pvt": "Pvt", 
        "arreya": "Arreya", 
        "intelligence": "Intelligence", 
        "ontraport": "ONTRAPORT", 
        "windstream": "Windstream", 
        "culture": "Culture", 
        "lion": "Lion", 
        "ard": "ARD", 
        "seo": "SEO", 
        "close": "Close", 
        "wepay": "WePay", 
        "cvent": "Cvent", 
        "deis": "Deis", 
        "fundly": "Fundly", 
        "knak": "knak", 
        "brand24": "Brand24", 
        "crisp": "Crisp", 
        "onstream": "Onstream", 
        "smartech": "Smartech", 
        "blurb": "Blurb", 
        "salesforceiq": "SalesforceIQ", 
        "genesys": "Genesys", 
        "alteryx": "Alteryx", 
        "moodle": "Moodle", 
        "clearbit": "Clearbit", 
        "kaltura": "Kaltura", 
        "mentoring": "Mentoring", 
        "minitab": "Minitab", 
        "foto": "FOTO", 
        "solr": "Solr", 
        "iauditor": "iAuditor", 
        "ads": "Ads", 
        "c": "C", 
        "blazer": "Blazer", 
        "restaurant": "Restaurant", 
        "stx": "STX", 
        "incapsula": "Incapsula", 
        "ecms": "eCMS", 
        "socedo": "Socedo", 
        "cloudinary": "Cloudinary", 
        "postgresql": "PostgreSQL", 
        "onmat": "OnMat", 
        "collect": "Collect", 
        "pdf": "PDF", 
        "hostaway": "Hostaway", 
        "simpli": "Simpli", 
        "simplycast": "SimplyCast", 
        "supply": "Supply", 
        "simple": "Simple", 
        "oveit": "Oveit", 
        "simply": "Simply", 
        "quizlet": "Quizlet", 
        "linux": "Linux", 
        "mylyn": "Mylyn", 
        "docsend": "DocSend", 
        "bluejeans": "BlueJeans", 
        "lithium": "Lithium", 
        "remedyforce": "Remedyforce", 
        "pr": "PR", 
        "pepperi": "Pepperi", 
        "java": "Java", 
        "shopify": "Shopify", 
        "dovetail": "Dovetail", 
        "stamp": "Stamp", 
        "maintenance": "Maintenance", 
        "foreup": "foreUP", 
        "15five": "15Five", 
        "tensorflow": "TensorFlow", 
        "meeting": "Meeting", 
        "skyward": "Skyward", 
        "prezi": "Prezi", 
        "alongside": "Alongside", 
        "favro": "Favro", 
        "gas": "Gas", 
        "bazaarvoice": "Bazaarvoice", 
        "activeconversion": "ActiveConversion", 
        "hackerrank": "HackerRank", 
        "siteground": "SiteGround", 
        "demand": "Demand", 
        "flinto": "Flinto", 
        "chatter": "Chatter", 
        "daptiv": "Daptiv", 
        "bonusly": "Bonusly", 
        "taskray": "TaskRay", 
        "look": "Look", 
        "shoretel": "ShoreTel", 
        "solid": "Solid", 
        "belly": "Belly", 
        "reservationless": "Reservationless", 
        "bill": "Bill", 
        "convo": "Convo", 
        "chargebee": "Chargebee", 
        "optimization": "Optimization", 
        "fleet": "Fleet", 
        "bronto": "Bronto", 
        "eventbank": "EventBank", 
        "loop": "Loop", 
        "swim": "Swim", 
        "powerapps": "PowerApps", 
        "wootric": "Wootric", 
        "ecwid": "Ecwid", 
        "skype": "Skype", 
        "1010data": "1010data", 
        "wave": "Wave", 
        "gimp": "GIMP", 
        "gryphon": "Gryphon", 
        "fedora": "Fedora", 
        "sendgrid": "Sendgrid", 
        "wideangle": "WideAngle", 
        "hadoop": "Hadoop", 
        "syncplicity": "Syncplicity", 
        "biller": "Biller", 
        "educa": "Educa", 
        "cloudways": "Cloudways", 
        "shedul": "Shedul", 
        "honeybook": "HoneyBook", 
        "freshchat": "Freshchat", 
        "stripe": "Stripe", 
        "eventbrite": "Eventbrite", 
        "bookly": "Bookly", 
        "knack": "Knack", 
        "stack": "STACK", 
        "crucible": "Crucible", 
        "noodle": "Noodle", 
        "database": "Database", 
        "sumac": "Sumac", 
        "icontact": "iContact", 
        "answerbase": "Answerbase", 
        "bigcommerce": "Bigcommerce", 
        "docker": "Docker", 
        "whmcs": "WHMCS", 
        "telegram": "Telegram", 
        "amp": "Amp", 
        "mixmax": "Mixmax", 
        "blazemeter": "BlazeMeter", 
        "intervals": "Intervals", 
        "cision": "Cision", 
        "voiceops": "VoiceOps", 
        "mysql": "MySQL", 
        "appdynamics": "AppDynamics", 
        "openstack": "OpenStack", 
        "velocify": "Velocify", 
        "cut": "Cut", 
        "snappa": "Snappa", 
        "semrush": "SEMrush", 
        "amt": "AMT", 
        "source": "Source", 
        "fieldwire": "Fieldwire", 
        "monday": "monday", 
        "venmo": "Venmo", 
        "dundas": "Dundas", 
        "format": "Format", 
        "uberconference": "UberConference", 
        "big": "Big", 
        "advocate": "Advocate", 
        "imovie": "iMovie", 
        "happyco": "HappyCo", 
        "nginx": "Nginx", 
        "coschedule": "CoSchedule", 
        "falcon": "Falcon", 
        "pressly": "Pressly", 
        "projects": "Projects", 
        "offerpop": "Offerpop", 
        "outright": "Outright", 
        "documentum": "Documentum", 
        "slidely": "Slidely", 
        "signal": "Signal", 
        "comm100": "Comm100", 
        "fogbugz": "FogBugz", 
        "achievers": "Achievers", 
        "continue": "Continue", 
        "trados": "Trados", 
        "bamboo": "Bamboo", 
        "essential": "eSSential", 
        "whatconverts": "WhatConverts", 
        "clustering": "Clustering", 
        "shelbynext": "ShelbyNext", 
        "vsphere": "vSphere", 
        "google": "Google", 
        "edirectory": "eDirectory", 
        "xtraction": "Xtraction", 
        "leadpages": "Leadpages", 
        "boardpro": "boardPro", 
        "talisma": "Talisma", 
        "engagio": "Engagio", 
        "pricing": "Pricing", 
        "safetynet": "SafetyNet", 
        "server": "Server", 
        "inkscape": "Inkscape", 
        "marin": "Marin", 
        "clockwise": "CLOCKWISE", 
        "aabaco": "Aabaco", 
        "wecounsel": "WeCounsel", 
        "integration": "Integration", 
        "accelo": "Accelo", 
        "innovation": "Innovation", 
        "taphunter": "TapHunter", 
        "epic": "Epic", 
        "temple": "Temple", 
        "clickmeeting": "ClickMeeting", 
        "teradata": "Teradata", 
        "run": "RUN", 
        "axway": "Axway", 
        "opencart": "OpenCart", 
        "bi": "BI", 
        "mytime": "MyTime", 
        "onenote": "OneNote", 
        "saleswarp": "SalesWarp", 
        "uft": "UFT", 
        "by": "By", 
        "contactability": "Contactability", 
        "react": "React", 
        "goody": "Goody", 
        "unmetric": "Unmetric", 
        "extensions": "Extensions", 
        "workato": "Workato", 
        "ide": "IDE", 
        "repair": "Repair", 
        "testlink": "TestLink", 
        "devonway": "DevonWay", 
        "ehive": "eHive", 
        "pipelinedeals": "PipelineDeals", 
        "demandbase": "Demandbase", 
        "totango": "Totango", 
        "eturns": "eTurns", 
        "soci": "SOCi", 
        "accountability": "AccountAbility", 
        "heroku": "Heroku", 
        "openx": "OpenX", 
        "mapbox": "Mapbox", 
        "wunderlist": "Wunderlist", 
        "translate": "Translate", 
        "chartbeat": "Chartbeat", 
        "fullstory": "FullStory", 
        "files": "Files", 
        "highrise": "Highrise", 
        "amobee": "Amobee", 
        "oceanos": "Oceanos", 
        "appian": "Appian", 
        "sketchup": "SketchUp", 
        "link": "Link", 
        "branch": "Branch", 
        "sdl": "SDL", 
        "nutshell": "Nutshell", 
        "sdk": "SDK", 
        "thehive": "TheHive", 
        "bananatag": "Bananatag", 
        "veryfi": "Veryfi", 
        "us": "us", 
        "placester": "Placester", 
        "labview": "LabVIEW", 
        "munis": "Munis", 
        "uk": "uk", 
        "bizible": "Bizible", 
        "z": "Z", 
        "groove": "Groove", 
        "fico": "FICO", 
        "uc": "UC", 
        "clearvoice": "ClearVoice", 
        "constant": "Constant", 
        "flow": "Flow", 
        "sailthru": "Sailthru", 
        "everstring": "EverString", 
        "chat": "chat", 
        "sourceforge": "SourceForge", 
        "prevail": "Prevail", 
        "cmake": "CMake", 
        "coveo": "Coveo", 
        "retrace": "Retrace", 
        "salesfusion": "Salesfusion", 
        "shortstack": "ShortStack", 
        "enps": "ENPS", 
        "application": "Application", 
        "nav": "Nav", 
        "hoopla": "Hoopla", 
        "servicedesk": "ServiceDesk", 
        "draw": "Draw", 
        "2checkout": "2Checkout", 
        "shopkeep": "ShopKeep", 
        "phpfox": "phpFox", 
        "basware": "Basware", 
        "backbone": "Backbone", 
        "pfl": "PFL", 
        "qustn": "Qustn", 
        "drag": "Drag", 
        "kickserv": "Kickserv", 
        "splunk": "Splunk", 
        "structure": "STRUCTURE", 
        "proseries": "ProSeries", 
        "e": "e", 
        "trail": "Trail", 
        "nintex": "Nintex", 
        "brightspace": "Brightspace", 
        "civicrm": "CiviCRM", 
        "sonicwall": "SonicWall", 
        "istation": "Istation", 
        "bluej": "BlueJ", 
        "oracle": "Oracle", 
        "fresh": "Fresh", 
        "panopto": "Panopto", 
        "enrichment": "Enrichment", 
        "code": "Code", 
        "mixpanel": "Mixpanel", 
        "coda": "Coda", 
        "hellosign": "HelloSign", 
        "wordperfect": "WordPerfect", 
        "results": "Results", 
        "qstream": "Qstream", 
        "syspro": "SYSPRO", 
        "edt": "EDT", 
        "xinet": "Xinet", 
        "adeptia": "Adeptia", 
        "edx": "edX", 
        "highfive": "Highfive", 
        "wizard": "Wizard", 
        "atiim": "Atiim", 
        "rudder": "Rudder", 
        "akamai": "Akamai", 
        "atlas": "Atlas", 
        "suite": "Suite", 
        "crowdtap": "Crowdtap", 
        "zillow": "Zillow", 
        "globalvision": "GlobalVision", 
        "staffing": "Staffing", 
        "virtuous": "Virtuous", 
        "satmetrix": "Satmetrix", 
        "g2": "G2", 
        "populi": "Populi", 
        "owneriq": "ownerIQ", 
        "versionone": "VersionOne", 
        "quora": "Quora", 
        "sabio": "SABIO", 
        "facebook": "Facebook", 
        "trendkite": "TrendKite", 
        "realpage": "RealPage", 
        "timely": "Timely", 
        "magic": "Magic", 
        "plangrid": "PlanGrid", 
        "mercurial": "Mercurial", 
        "livejournal": "LiveJournal", 
        "hive": "Hive", 
        "famcare": "FAMCare", 
        "tinkercad": "Tinkercad", 
        "cdw": "CDW", 
        "sharetribe": "Sharetribe", 
        "jobber": "Jobber", 
        "sucuri": "Sucuri", 
        "inspection": "Inspection", 
        "braintree": "Braintree", 
        "unbounce": "Unbounce", 
        "6sense": "6Sense", 
        "sumtotal": "Sumtotal", 
        "shipstation": "ShipStation", 
        "blitz": "Blitz", 
        "convertkit": "Convertkit", 
        "easypromos": "Easypromos", 
        "haiku": "Haiku", 
        "dynamics": "Dynamics", 
        "ampro": "AMPRO", 
        "enplug": "Enplug", 
        "index": "Index", 
        "twine": "Twine", 
        "business": "Business", 
        "showcase": "Showcase", 
        "giving": "Giving", 
        "backupify": "Backupify", 
        "wireframe": "Wireframe", 
        "espresso": "Espresso", 
        "producteev": "Producteev", 
        "paddle": "Paddle", 
        "access": "Access", 
        "intuto": "Intuto", 
        "udacity": "Udacity", 
        "fisheye": "FishEye", 
        "capital": "Capital", 
        "sotrender": "Sotrender", 
        "3d": "3d", 
        "degree": "Degree", 
        "exchange": "Exchange", 
        "brightedge": "Brightedge", 
        "kangaroo": "Kangaroo", 
        "commercial": "Commercial", 
        "influxdb": "InfluxDB", 
        "nimble": "Nimble", 
        "cosmolex": "CosmoLex", 
        "ubuntu": "Ubuntu", 
        "sine": "Sine", 
        "clinicient": "Clinicient", 
        "apptimize": "Apptimize", 
        "flexnet": "FlexNet", 
        "convert": "Convert", 
        "engage": "Engage", 
        "talent": "Talent", 
        "warehousing": "Warehousing", 
        "janus": "JANUS", 
        "survey": "Survey", 
        "relateiq": "RelateIQ", 
        "cleverbridge": "cleverbridge", 
        "hexagon": "Hexagon", 
        "maker": "Maker", 
        "goanimate": "GoAnimate", 
        "streak": "Streak", 
        "globenewswire": "GlobeNewswire", 
        "apple": "Apple", 
        "webfocus": "WebFOCUS", 
        "deputy": "Deputy", 
        "aps": "APS", 
        "app": "App", 
        "manage": "Manage", 
        "databricks": "Databricks", 
        "appium": "Appium", 
        "techvalidate": "TechValidate", 
        "velaro": "Velaro", 
        "necto": "Necto", 
        "beanstalk": "Beanstalk", 
        "api": "API", 
        "duck": "Duck", 
        "buildup": "Buildup", 
        "vultr": "Vultr", 
        "scaleo": "Scaleo", 
        "tools": "Tools", 
        "gateway": "Gateway", 
        "cloud": "Cloud", 
        "wix": "Wix", 
        "sketchbook": "Sketchbook", 
        "ogpro": "OGpro", 
        "from": "from", 
        "freshsales": "Freshsales", 
        "doodle": "Doodle", 
        "frog": "Frog", 
        "next": "Next", 
        "reachforce": "ReachForce", 
        "elogger": "eLogger", 
        "stetho": "Stetho", 
        "pencil": "Pencil", 
        "iis": "IIS", 
        "on24": "ON24", 
        "etools": "Etools", 
        "okta": "Okta", 
        "impress": "Impress", 
        "timesheet": "Timesheet", 
        "screenflow": "screenflow", 
        "execvision": "ExecVision", 
        "mend": "Mend", 
        "sysomos": "Sysomos", 
        "bullhorn": "Bullhorn", 
        "ecourt": "eCourt", 
        "workface": "Workface", 
        "harvest": "Harvest", 
        "appnexus": "AppNexus", 
        "subscription": "Subscription", 
        "customer": "Customer", 
        "maas360": "Maas360", 
        "envisio": "Envisio", 
        "bidsketch": "Bidsketch", 
        "when": "When", 
        "inbenta": "Inbenta", 
        "unreal": "Unreal", 
        "freedom": "Freedom", 
        "avamar": "Avamar", 
        "usersnap": "Usersnap", 
        "saba": "Saba", 
        "fetch": "Fetch", 
        "control": "Control", 
        "sqlite": "SQLite", 
        "process": "Process", 
        "tipalti": "Tipalti", 
        "tax": "Tax", 
        "whoisvisiting": "Whoisvisiting", 
        "tag": "Tag", 
        "ipage": "iPage", 
        "camtasia": "Camtasia", 
        "expandable": "Expandable", 
        "spss": "SPSS", 
        "microstation": "MicroStation", 
        "qwilr": "Qwilr", 
        "native": "Native", 
        "malware": "Malware", 
        "united": "United", 
        "guru": "Guru", 
        "vibe": "Vibe", 
        "precoro": "Precoro", 
        "tableau": "Tableau", 
        "prestashop": "PrestaShop", 
        "invoiced": "Invoiced", 
        "entree": "Entree", 
        "dataforma": "Dataforma", 
        "spiceworks": "Spiceworks", 
        "ryver": "Ryver", 
        "nextiva": "Nextiva", 
        "expensify": "Expensify", 
        "productive": "Productive", 
        "putty": "PuTTY", 
        "jotform": "JotForm", 
        "trudigital": "truDigital", 
        "nps": "NPS", 
        "datacamp": "DataCamp", 
        "metasploit": "Metasploit", 
        "light": "Light", 
        "failover": "Failover", 
        "bunchball": "Bunchball", 
        "zbrush": "ZBrush", 
        "robot": "Robot", 
        "scribe": "Scribe", 
        "submittable": "Submittable", 
        "outbrain": "Outbrain", 
        "bakery": "Bakery", 
        "venngage": "Venngage", 
        "agenda": "Agenda", 
        "classy": "Classy", 
        "tallie": "Tallie", 
        "inmoment": "InMoment", 
        "jira": "JIRA", 
        "ispring": "iSpring", 
        "mailshake": "mailshake", 
        "gainsight": "Gainsight", 
        "insight": "Insight", 
        "innroad": "innRoad", 
        "meter": "Meter", 
        "spatula": "Spatula", 
        "h5p": "H5P", 
        "artichoke": "Artichoke", 
        "transifex": "Transifex", 
        "hbase": "Hbase", 
        "vms": "VMS", 
        "badger": "Badger", 
        "perfect": "Perfect", 
        "itemize": "Itemize", 
        "relativity": "Relativity", 
        "talkwalker": "Talkwalker", 
        "estimating": "Estimating", 
        "lt": "LT", 
        "referralcandy": "ReferralCandy", 
        "webex": "WebEx", 
        "ls": "LS", 
        "2017": "2017", 
        "ly": "ly", 
        "flex": "Flex", 
        "trustpilot": "Trustpilot", 
        "sapling": "Sapling", 
        "findthatlead": "FindThatLead", 
        "greater": "Greater", 
        "auto": "Auto", 
        "alfresco": "Alfresco", 
        "miva": "Miva", 
        "downnotifier": "DownNotifier", 
        "ambition": "Ambition", 
        "front": "Front", 
        "cakephp": "CakePHP", 
        "odyssey": "Odyssey", 
        "easel": "Easel", 
        "trac": "Trac", 
        "agencyanalytics": "Agencyanalytics", 
        "sellbrite": "Sellbrite", 
        "trak": "Trak", 
        "billy": "Billy", 
        "mode": "Mode", 
        "gotomeeting": "GoToMeeting", 
        "kpi": "kpi", 
        "landingi": "Landingi", 
        "mulesoft": "MuleSoft", 
        "tray": "Tray", 
        "modo": "Modo", 
        "worketc": "WORKetc", 
        "drooms": "Drooms", 
        "intellij": "IntelliJ", 
        "krita": "Krita", 
        "trimble": "Trimble", 
        "atera": "Atera", 
        "cpanel": "cPanel", 
        "citrix": "Citrix", 
        "ucoz": "uCoz", 
        "tubular": "Tubular", 
        "pushad": "PushAd", 
        "statii": "Statii", 
        "out": "Out", 
        "maximizer": "Maximizer", 
        "vcd": "vCD", 
        "matrix": "Matrix", 
        "mandrill": "Mandrill", 
        "armor": "Armor", 
        "webtrends": "Webtrends", 
        "rival": "Rival", 
        "sandbox": "Sandbox", 
        "simplicant": "Simplicant", 
        "messenger": "Messenger", 
        "autopilot": "Autopilot", 
        "adaptive": "Adaptive", 
        "postbeyond": "PostBeyond", 
        "red": "Red", 
        "yext": "Yext", 
        "workflow": "Workflow", 
        "frank": "Frank", 
        "casengo": "Casengo", 
        "payroll": "Payroll", 
        "ecs": "ECS", 
        "activecampaign": "Activecampaign", 
        "advisor": "Advisor", 
        "ehr": "EHR", 
        "laravel": "Laravel", 
        "hubble": "Hubble", 
        "river": "River", 
        "g": "G", 
        "siteimprove": "Siteimprove", 
        "stride": "Stride", 
        "getresponse": "GetResponse", 
        "elasticsearch": "Elasticsearch", 
        "efront": "eFront", 
        "ltd": "Ltd", 
        "workbook": "WorkBook", 
        "salesseek": "SalesSeek", 
        "retail": "Retail", 
        "mckesson": "McKesson", 
        "blogger": "Blogger", 
        "sendbloom": "Sendbloom", 
        "getsocial": "GetSocial", 
        "jobscore": "JobScore", 
        "strategic": "Strategic", 
        "improvements": "Improvements", 
        "puppet": "Puppet", 
        "guidebook": "Guidebook", 
        "art": "Art", 
        "quality": "Quality", 
        "conga": "Conga", 
        "centricity": "Centricity", 
        "stencil": "Stencil", 
        "reference": "Reference", 
        "oktopost": "Oktopost", 
        "accent": "Accent", 
        "system": "System", 
        "grow": "Grow", 
        "attach": "Attach", 
        "snaplogic": "SnapLogic", 
        "chaser": "Chaser", 
        "energage": "energage", 
        "final": "Final", 
        "agility": "Agility", 
        "hotdocs": "HotDocs", 
        "configure": "Configure", 
        "academy": "Academy", 
        "acquire": "Acquire", 
        "innovate": "Innovate", 
        "argos": "Argos", 
        "1salescrm": "1SalesCRM", 
        "10000ft": "10000ft", 
        "commence": "Commence", 
        "tellwise": "Tellwise", 
        "slack": "Slack", 
        "chiropractic": "Chiropractic", 
        "youtube": "YouTube", 
        "bee": "Bee", 
        "compensation": "Compensation", 
        "amplitude": "Amplitude", 
        "erply": "Erply", 
        "referral": "Referral", 
        "bing": "Bing", 
        "marketpay": "MarketPay", 
        "viewer": "Viewer", 
        "grails": "Grails", 
        "securelink": "SecureLink", 
        "woorank": "Woorank", 
        "sourcetree": "SourceTree", 
        "scoop": "Scoop", 
        "upcity": "UpCity", 
        "agency": "Agency", 
        "mie": "MIE", 
        "chief": "Chief", 
        "contact": "Contact", 
        "vertica": "Vertica", 
        "pivotal": "Pivotal", 
        "tactic": "Tactic", 
        "dapulse": "dapulse", 
        "hp": "HP", 
        "grammarly": "Grammarly", 
        "textus": "TextUs", 
        "kenshoo": "Kenshoo", 
        "whm": "WHM", 
        "aws": "AWS", 
        "rigor": "Rigor", 
        "device": "Device", 
        "segment": "Segment", 
        "shippable": "Shippable", 
        "realtor": "Realtor", 
        "looker": "Looker", 
        "url": "URL", 
        "gather": "Gather", 
        "thunderbird": "Thunderbird", 
        "construction": "Construction", 
        "gesture": "Gesture", 
        "mechanical": "Mechanical", 
        "nationbuilder": "NationBuilder", 
        "avaza": "Avaza", 
        "xtensio": "Xtensio", 
        "text": "Text", 
        "stafs": "Stafs", 
        "allocadia": "Allocadia", 
        "planday": "Planday", 
        "planning": "Planning", 
        "greenhouse": "Greenhouse", 
        "procore": "Procore", 
        "rentman": "Rentman", 
        "portfolio": "Portfolio", 
        "rubrik": "Rubrik", 
        "staff": "Staff", 
        "pastoral": "Pastoral", 
        "knowledge": "Knowledge", 
        "allcal": "allcal", 
        "liverail": "LiveRail", 
        "cache": "Cache", 
        "pixlr": "Pixlr", 
        "atmos": "Atmos", 
        "livehelpnow": "LiveHelpNow", 
        "employee": "Employee", 
        "feedly": "Feedly", 
        "local": "Local", 
        "timesheets": "Timesheets", 
        "onpay": "OnPay", 
        "ziprecruiter": "ZipRecruiter", 
        "podio": "Podio", 
        "levelup": "LevelUp", 
        "act": "Act", 
        "spyfu": "SpyFu", 
        "cacti": "Cacti", 
        "webmaker": "Webmaker", 
        "timing": "Timing", 
        "db2": "DB2", 
        "bettercloud": "BetterCloud", 
        "uberflip": "Uberflip", 
        "crowdspring": "crowdspring", 
        "pagerduty": "PagerDuty", 
        "kibo": "Kibo", 
        "skillsoft": "Skillsoft", 
        "netsuite": "NetSuite", 
        "serpstat": "Serpstat", 
        "teams": "Teams", 
        "comeet": "Comeet", 
        "pulses": "Pulses", 
        "logbook": "Logbook", 
        "fixed": "Fixed", 
        "dreamhost": "DreamHost", 
        "view": "View", 
        "cognos": "Cognos", 
        "apigee": "Apigee", 
        "statistical": "Statistical", 
        "inkling": "Inkling", 
        "sumome": "SumoMe", 
        "travis": "Travis", 
        "graph": "Graph", 
        "cincom": "Cincom", 
        "frederick": "Frederick", 
        "socialoomph": "SocialOomph", 
        "gmail": "Gmail", 
        "datadog": "Datadog", 
        "vistaprint": "Vistaprint", 
        "teuxdeux": "TeuxDeux", 
        "pattern": "Pattern", 
        "tagetik": "Tagetik", 
        "taboola": "Taboola", 
        "stata": "Stata", 
        "benchmark": "Benchmark", 
        "progress": "Progress", 
        "flickr": "Flickr", 
        "email": "Email", 
        "genkan": "GENKAN", 
        "wavemaker": "WaveMaker", 
        "keynote": "Keynote", 
        "uservoice": "UserVoice", 
        "rosetta": "Rosetta", 
        "lumesse": "Lumesse", 
        "webengage": "WebEngage", 
        "qualaroo": "Qualaroo", 
        "datafox": "DataFox", 
        "teamcity": "TeamCity", 
        "artlogic": "Artlogic", 
        "p2p": "P2P", 
        "key": "Key", 
        "capabiliti": "Capabiliti", 
        "observepoint": "ObservePoint", 
        "clickfunnels": "ClickFunnels", 
        "mobileiron": "MobileIron", 
        "monitor": "Monitor", 
        "hits": "Hits", 
        "drum": "Drum", 
        "career": "Career", 
        "fivestars": "FiveStars", 
        "ramp": "Ramp", 
        "appsheet": "Appsheet", 
        "streams": "Streams", 
        "nitro": "Nitro", 
        "upcontent": "UpContent", 
        "canopy": "Canopy", 
        "betterworks": "BetterWorks", 
        "ourrecords": "OurRecords", 
        "socialengine": "SocialEngine", 
        "co": "co", 
        "smartsheet": "Smartsheet", 
        "cc": "cc", 
        "cb": "Cb", 
        "ca": "CA", 
        "piesync": "PieSync", 
        "prospect": "Prospect", 
        "vend": "Vend", 
        "contractzen": "ContractZen", 
        "qemu": "QEMU", 
        "onedrive": "OneDrive", 
        "videos": "Videos", 
        "1pointmail": "1PointMail", 
        "powered": "powered", 
        "charts": "Charts", 
        "quiz": "Quiz", 
        "intraboom": "Intraboom", 
        "optinmonster": "OptinMonster", 
        "versal": "Versal", 
        "teamwork": "Teamwork", 
        "semaphore": "Semaphore", 
        "balsamiq": "Balsamiq", 
        "proposal": "Proposal", 
        "appinstitute": "AppInstitute", 
        "taskfeed": "Taskfeed", 
        "epicor": "Epicor", 
        "microstrategy": "MicroStrategy", 
        "verizon": "Verizon", 
        "fieldone": "FieldOne", 
        "ilos": "Ilos", 
        "meteor": "Meteor", 
        "irise": "iRise", 
        "painter": "Painter", 
        "multi": "Multi", 
        "vimeo": "Vimeo", 
        "vanilla": "Vanilla", 
        "routific": "Routific", 
        "grantmaking": "Grantmaking", 
        "wild": "Wild", 
        "lokalise": "Lokalise", 
        "dealersocket": "DealerSocket", 
        "firebug": "Firebug", 
        "yesware": "Yesware", 
        "demo": "Demo", 
        "site": "Site", 
        "liverez": "LiveRez", 
        "ansible": "Ansible", 
        "mockingbird": "Mockingbird", 
        "squiz": "Squiz", 
        "bucks": "Bucks", 
        "inspector": "Inspector", 
        "hyland": "Hyland", 
        "officebooks": "OfficeBooks", 
        "captora": "Captora", 
        "capture": "Capture", 
        "mintigo": "Mintigo", 
        "teachable": "Teachable", 
        "insightly": "Insightly", 
        "wework": "WeWork", 
        "linode": "Linode", 
        "pdm": "PDM", 
        "bluehost": "Bluehost", 
        "asana": "Asana", 
        "surveymonkey": "SurveyMonkey", 
        "bloomz": "Bloomz", 
        "android": "Android", 
        "infer": "Infer", 
        "rainmaker": "Rainmaker", 
        "triblio": "Triblio", 
        "practice": "Practice", 
        "infinity": "Infinity", 
        "annie": "Annie", 
        "promo": "Promo", 
        "anki": "Anki", 
        "sequel": "Sequel", 
        "buzz": "Buzz", 
        "ios": "iOS", 
        "automation": "automation", 
        "ion": "ion", 
        "openoffice": "OpenOffice", 
        "v5": "V5", 
        "student": "Student", 
        "vault": "Vault", 
        "canva": "Canva", 
        "volusion": "Volusion", 
        "solodev": "Solodev", 
        "identity": "Identity", 
        "ipfolio": "IPfolio", 
        "buzzboard": "BuzzBoard", 
        "center": "Center", 
        "mention": "Mention", 
        "i": "i", 
        "builder": "Builder", 
        "mlevel": "mLevel", 
        "appointmentplus": "AppointmentPlus", 
        "kajabi": "Kajabi", 
        "command": "Command", 
        "digitalocean": "DigitalOcean", 
        "adwords": "Adwords", 
        "outgrow": "Outgrow", 
        "infocus": "InFocus", 
        "campaigner": "Campaigner", 
        "mindtickle": "MindTickle", 
        "rocket": "Rocket", 
        "less": "Less", 
        "premiere": "Premiere", 
        "gluu": "Gluu", 
        "gliffy": "Gliffy", 
        "abas": "Abas", 
        "surpass": "Surpass", 
        "localize": "Localize", 
        "web": "web", 
        "slite": "Slite", 
        "rapid": "Rapid", 
        "console": "Console", 
        "photobucket": "Photobucket", 
        "adp": "Adp", 
        "onware": "Onware", 
        "point": "Point", 
        "lattice": "Lattice", 
        "stratum": "Stratum", 
        "infegy": "Infegy", 
        "dqm": "DQM", 
        "bugsnag": "Bugsnag", 
        "advanced": "Advanced", 
        "smart": "Smart", 
        "raven": "Raven", 
        "buzzsumo": "Buzzsumo", 
        "samsara": "Samsara", 
        "liveengage": "LiveEngage", 
        "ignitur": "Ignitur", 
        "sumall": "SumAll", 
        "treehouse": "Treehouse", 
        "celerant": "Celerant", 
        "cognitiveseo": "cognitiveSEO", 
        "community": "Community", 
        "resolver": "Resolver", 
        "desk": "Desk", 
        "press": "Press", 
        "password": "Password", 
        "bitly": "Bitly", 
        "terminalone": "TerminalOne", 
        "hybris": "Hybris", 
        "emma": "Emma", 
        "telnyx": "Telnyx", 
        "success": "Success", 
        "litmos": "Litmos", 
        "jedox": "Jedox", 
        "turnto": "Turnto", 
        "appseconnect": "APPSeCONNECT", 
        "aprimo": "Aprimo", 
        "tanda": "Tanda", 
        "sakai": "Sakai", 
        "starred": "Starred", 
        "backlog": "Backlog", 
        "exceed": "Exceed", 
        "couchbase": "Couchbase", 
        "marketshare": "MarketShare", 
        "church": "Church", 
        "tumblr": "Tumblr", 
        "employment": "Employment", 
        "transport": "Transport", 
        "tms": "TMS", 
        "pinpoint": "PINpoint", 
        "lead": "Lead", 
        "profitwell": "ProfitWell", 
        "contently": "Contently", 
        "smartcloud": "SmartCloud", 
        "pop": "Pop", 
        "leap": "LEAP", 
        "honey": "Honey", 
        "percolate": "Percolate", 
        "accessplanit": "accessplanit", 
        "ensemble": "Ensemble", 
        "callpage": "CallPage", 
        "pyrocms": "PyroCMS", 
        "schedule": "Schedule", 
        "pear": "Pear", 
        "lexmark": "Lexmark", 
        "abantecart": "Abantecart", 
        "host": "Host", 
        "tenfold": "Tenfold", 
        "sharefile": "ShareFile", 
        "trinet": "TriNet", 
        "socket": "Socket", 
        "universe": "Universe", 
        "airpr": "Airpr", 
        "codecademy": "Codecademy", 
        "arcgis": "ArcGIS", 
        "izenda": "Izenda", 
        "tomcat": "Tomcat", 
        "hoovers": "Hoovers", 
        "powerpoint": "PowerPoint", 
        "software": "software", 
        "salesloft": "SalesLoft", 
        "emaze": "emaze", 
        "articulate": "Articulate", 
        "registration": "Registration", 
        "magisto": "Magisto", 
        "virtualbox": "VirtualBox", 
        "utility": "Utility", 
        "gotowebinar": "GoToWebinar", 
        "nuke": "Nuke", 
        "elastic": "Elastic", 
        "fonality": "Fonality", 
        "apps": "Apps", 
        "zoominfo": "ZoomInfo", 
        "loopfuse": "LoopFuse", 
        "mavenlink": "Mavenlink", 
        "subcontractor": "Subcontractor", 
        "mozy": "Mozy", 
        "recruitee": "Recruitee", 
        "function": "Function", 
        "funnel": "Funnel", 
        "eam": "EAM", 
        "hr": "Hr", 
        "bus": "Bus", 
        "woobox": "Woobox", 
        "hq": "HQ", 
        "astro": "Astro", 
        "collaborator": "Collaborator", 
        "glip": "Glip", 
        "godaddy": "GoDaddy", 
        "viraltag": "Viraltag", 
        "spredfast": "Spredfast", 
        "freshmarketer": "Freshmarketer", 
        "opentext": "OpenText", 
        "reviewtrackers": "ReviewTrackers", 
        "count": "Count", 
        "akeneo": "Akeneo", 
        "converter": "Converter", 
        "wordstream": "WordStream", 
        "lync": "Lync", 
        "hosting": "Hosting", 
        "socrative": "Socrative", 
        "agorapulse": "Agorapulse", 
        "lingo": "Lingo", 
        "cake": "CAKE", 
        "isupport": "iSupport", 
        "pm": "PM", 
        "marketplace": "Marketplace", 
        "autodesk": "Autodesk", 
        "controlcenter": "ControlCenter", 
        "taskworld": "Taskworld", 
        "recognize": "Recognize", 
        "universal": "Universal", 
        "ez": "eZ", 
        "anyconnect": "AnyConnect", 
        "prolo": "Prolo", 
        "paymo": "Paymo", 
        "accenture": "Accenture", 
        "education": "Education", 
        "campus": "Campus", 
        "union": "Union", 
        "inc": "Inc", 
        "rapportive": "Rapportive", 
        "tick": "Tick", 
        "cpq": "CPQ", 
        "pipedrive": "Pipedrive", 
        "corporation": "Corporation", 
        "virtual": "Virtual", 
        "peoplesoft": "PeopleSoft", 
        "witness": "WITNESS", 
        "clickx": "Clickx", 
        "clicky": "Clicky", 
        "babbel": "Babbel", 
        "linkpoint": "LinkPoint", 
        "pocketsuite": "PocketSuite", 
        "kubernetes": "Kubernetes", 
        "dassault": "Dassault", 
        "inspectlet": "Inspectlet", 
        "footprints": "FootPrints", 
        "canvas": "Canvas", 
        "addthis": "Addthis", 
        "atlassian": "Atlassian", 
        "breadcrumb": "Breadcrumb", 
        "jomsocial": "JomSocial", 
        "seraphim": "Seraphim", 
        "xendesktop": "XenDesktop", 
        "mendeley": "Mendeley", 
        "seismic": "Seismic", 
        "debian": "Debian", 
        "ghost": "Ghost", 
        "xamarin": "Xamarin", 
        "growbots": "Growbots", 
        "quetzal": "Quetzal", 
        "yelp": "Yelp", 
        "samsung": "Samsung", 
        "blogs": "Blogs", 
        "wetransfer": "WeTransfer", 
        "4c": "4C", 
        "skyword": "Skyword", 
        "timecamp": "TimeCamp", 
        "4d": "4D", 
        "jazzhr": "JazzHR", 
        "smallpdf": "Smallpdf"
}